<?xml version="1.0" standalone="no"?>
<!DOCTYPE svg PUBLIC "-//W3C//DTD SVG 1.1//EN" "http://www.w3.org/Graphics/SVG/1.1/DTD/svg11.dtd" >
<svg>
<metadata>
Created by FontForge 20090622 at Mon Nov 30 00:03:06 2015
 By deploy user
Copyright (c) 1987, 1991, 1993, 1994, 1998 Adobe Systems Incorporated.  All Rights Reserved.Univers is a trademark of Linotype-Hell AG and/or its subsidiaries.
</metadata>
<defs>
<font id="Univers-Light" horiz-adv-x="556" >
  <font-face 
    font-family="Univers 45 Light"
    font-weight="300"
    font-stretch="normal"
    units-per-em="1000"
    panose-1="2 11 4 0 0 0 0 0 0 0"
    ascent="750"
    descent="-250"
    x-height="502"
    cap-height="725"
    bbox="-151 -250 1000 957"
    underline-thickness="50"
    underline-position="-50"
    unicode-range="U+0020-U+FB02"
  />
<missing-glyph horiz-adv-x="278" 
 />
    <glyph glyph-name=".notdef" horiz-adv-x="278" 
 />
    <glyph glyph-name=".null" horiz-adv-x="0" 
 />
    <glyph glyph-name="nonmarkingreturn" horiz-adv-x="333" 
 />
    <glyph glyph-name="space" unicode=" " horiz-adv-x="278" 
 />
    <glyph glyph-name="space" unicode="&#xa0;" horiz-adv-x="278" 
 />
    <glyph glyph-name="exclam" unicode="!" horiz-adv-x="389" 
d="M223 171h-56l-13 551h82zM155 86h80v-86h-80v86z" />
    <glyph glyph-name="quotedbl" unicode="&#x22;" horiz-adv-x="278" 
d="M58 496v226h52v-226h-52zM168 496v226h52v-226h-52z" />
    <glyph glyph-name="numbersign" unicode="#" 
d="M361 423h-135l-22 -137h137zM527 483v-60h-107l-20 -137h101v-60h-110l-31 -226h-59l31 226h-136l-34 -226h-58l34 226h-109v60h118l20 137h-111v60h119l32 209h59l-31 -209h135l30 209h59l-31 -209h99z" />
    <glyph glyph-name="dollar" unicode="$" 
d="M301 309v-264q57 4 100.5 38.5t43.5 92.5q0 24 -9 43.5t-19 31t-32 23.5t-34 16.5l-39 14.5q-7 3 -11 4zM301 -15v-53h-50v53q-88 3 -150.5 51.5t-58.5 139.5h70q-4 -62 35.5 -94.5t103.5 -36.5v275q-7 3 -32 12t-42.5 16t-42.5 22.5t-40.5 33t-27 47t-11.5 64.5
q0 77 61.5 134.5t134.5 57.5v48h50v-48q78 0 137.5 -47t64.5 -128h-70q-1 58 -40 86.5t-92 30.5v-275l45.5 -14.5t41.5 -15.5t42 -20t32.5 -24t29 -32.5t16 -41t7.5 -52.5q0 -91 -63.5 -140t-150.5 -49zM251 389v258q-51 -1 -88.5 -37t-37.5 -94q0 -53 34 -81t92 -46z" />
    <glyph glyph-name="percent" unicode="%" horiz-adv-x="1000" 
d="M277 662q-53 0 -78.5 -43.5t-25.5 -100.5t25.5 -100.5t78.5 -43.5t78.5 43.5t25.5 100.5t-25.5 100.5t-78.5 43.5zM653 707h58l-390 -707h-58zM277 707q73 0 116 -55.5t43 -133.5t-43 -133.5t-116 -55.5t-116 55.5t-43 133.5t43 133.5t116 55.5zM723 363q73 0 116 -55.5
t43 -133.5t-43 -133.5t-116 -55.5t-116 55.5t-43 133.5t43 133.5t116 55.5zM723 318q-53 0 -78.5 -43.5t-25.5 -100.5t25.5 -100.5t78.5 -43.5t78.5 43.5t25.5 100.5t-25.5 100.5t-78.5 43.5z" />
    <glyph glyph-name="ampersand" unicode="&#x26;" horiz-adv-x="722" 
d="M501 138l-226 243q-32 -21 -61.5 -44t-59.5 -59.5t-30 -65.5q0 -76 55.5 -121.5t132.5 -45.5q57 0 101 23.5t88 69.5zM287 461q7 7 25.5 23.5t28.5 27t22.5 26.5t18.5 32.5t6 34.5q0 35 -26 53.5t-62 18.5q-39 0 -65 -17.5t-26 -54.5q0 -59 78 -144zM230 422l4 4
q-32 37 -46.5 55.5t-31.5 55t-17 69.5q0 63 46.5 97t111.5 34t113 -33t48 -95q0 -40 -22 -78t-45.5 -59.5t-64.5 -52.5l211 -225q24 55 36.5 130t9.5 137h70q0 -3 -2.5 -31t-3.5 -33.5t-3.5 -31t-4 -34l-5.5 -30.5t-7 -33l-8 -30t-10.5 -31.5l-12.5 -28t-15 -29.5l137 -149
h-93l-86 96q-94 -111 -221 -111q-113 0 -188.5 58t-75.5 155q0 32 12 61.5t25 48.5t43.5 44.5t45 35.5z" />
    <glyph glyph-name="quotesingle" unicode="'" horiz-adv-x="278" 
d="M113 496v226h52v-226h-52z" />
    <glyph glyph-name="parenleft" unicode="(" horiz-adv-x="278" 
d="M234 -96h-51q-4 12 -20.5 55l-22.5 59.5l-19 54.5t-18.5 61l-13 56.5t-10.5 63t-3 59.5q0 65 19.5 146t35 124t53.5 139h50q-88 -224 -88 -409q0 -183 88 -409z" />
    <glyph glyph-name="parenright" unicode=")" horiz-adv-x="278" 
d="M95 -96h-51q88 226 88 409q0 185 -88 409h50q38 -96 53.5 -139t35 -124t19.5 -146q0 -30 -3 -59.5t-10.5 -63l-13 -56.5t-18.5 -61l-19 -54.5l-22.5 -59.5t-20.5 -55z" />
    <glyph glyph-name="asterisk" unicode="*" 
d="M211 722l68 -136l67 136l51 -28l-88 -127l143 12v-58l-142 11l86 -129l-52 -27l-65 138l-68 -140l-50 29l87 128l-144 -10v58l145 -12l-91 126z" />
    <glyph glyph-name="plus" unicode="+" horiz-adv-x="660" 
d="M300 281v221h60v-221h220v-60h-220v-221h-60v221h-220v60h220z" />
    <glyph glyph-name="comma" unicode="," horiz-adv-x="278" 
d="M102 81h81l-72 -205h-52z" />
    <glyph glyph-name="hyphen" unicode="-" horiz-adv-x="278" 
d="M13 237v60h252v-60h-252z" />
    <glyph glyph-name="hyphen" unicode="&#xad;" horiz-adv-x="278" 
d="M13 237v60h252v-60h-252z" />
    <glyph glyph-name="period" unicode="." horiz-adv-x="278" 
d="M179 0h-80v86h80v-86z" />
    <glyph glyph-name="slash" unicode="/" horiz-adv-x="278" 
d="M-23 -96l259 818h65l-261 -818h-63z" />
    <glyph glyph-name="zero" unicode="0" 
d="M278 647q-160 0 -160 -301t160 -301t160 301t-160 301zM278 707q230 0 230 -361t-230 -361t-230 361t230 361z" />
    <glyph glyph-name="one" unicode="1" 
d="M116 518v65q84 34 159 109h62v-692h-65v622q-61 -58 -156 -104z" />
    <glyph glyph-name="two" unicode="2" 
d="M485 0h-435v68q47 42 96 90.5t113.5 119t105.5 137t41 109.5q0 58 -40 90.5t-99 32.5q-62 0 -101 -38.5t-39 -99.5h-70q0 90 60 144t152 54q88 0 147.5 -46.5t59.5 -132.5q0 -33 -12.5 -70.5t-38.5 -76.5t-51.5 -72t-65 -73.5l-64 -65l-64.5 -62l-52 -48.5h357v-60z" />
    <glyph glyph-name="three" unicode="3" 
d="M225 329v63q47 -5 89 5.5t72 43t30 81.5q0 58 -44.5 91.5t-108.5 33.5q-66 0 -105 -33t-46 -93h-70q0 84 63 135t149 51q97 0 164.5 -47.5t67.5 -141.5q0 -60 -40 -101.5t-101 -54.5v-2q68 -15 110 -61t42 -114q0 -92 -71.5 -146t-165.5 -54q-96 0 -160.5 51.5
t-67.5 146.5h70q1 -62 47.5 -100t109.5 -38q73 0 120.5 38.5t47.5 109.5q0 53 -31.5 87t-76 45t-94.5 4z" />
    <glyph glyph-name="four" unicode="4" 
d="M347 0v161h-325v63l304 468h86v-477h111v-54h-111v-161h-65zM347 215v412h-2l-268 -412h270z" />
    <glyph glyph-name="five" unicode="5" 
d="M76 291l16 401h381v-60h-319l-11 -247l2 -2q63 73 152 73q95 0 153 -67.5t58 -163.5q0 -102 -61 -171t-161 -69q-95 0 -158 46t-66 139h70q3 -60 44 -92.5t103 -32.5q77 0 118 51.5t41 131.5q0 77 -39.5 122.5t-115.5 45.5q-51 0 -90.5 -28.5t-49.5 -76.5h-67z" />
    <glyph glyph-name="six" unicode="6" 
d="M296 394q-80 0 -124.5 -51.5t-44.5 -131.5q0 -67 45 -116.5t111 -49.5q74 0 116 47.5t42 123.5q0 75 -36.5 126.5t-108.5 51.5zM297 707q89 0 146.5 -45.5t58.5 -131.5h-70q-2 53 -39.5 85t-92.5 32q-48 0 -83 -20.5t-54 -50.5t-30.5 -75t-14.5 -82t-3 -83h2q23 55 71 84
t111 29q100 0 156 -63.5t56 -165.5t-59 -168.5t-159 -66.5q-70 0 -120 27t-77 74.5t-39 103t-12 121.5q0 61 4.5 110t20 105t42 93.5t74 62.5t111.5 25z" />
    <glyph glyph-name="seven" unicode="7" 
d="M492 692v-58l-269 -634h-76l277 632h-373v60h441z" />
    <glyph glyph-name="eight" unicode="8" 
d="M194 359v2q-60 6 -100.5 52t-40.5 108q0 90 66.5 138t158.5 48t158.5 -48t66.5 -138q0 -61 -39 -103.5t-100 -56.5v-1q149 -39 149 -172q0 -98 -69.5 -150.5t-165.5 -52.5t-165.5 52.5t-69.5 150.5q-1 65 40.5 110.5t110.5 60.5zM118 521q0 -63 44 -96.5t116 -33.5
t116 33.5t44 96.5q0 65 -47.5 98t-112.5 33t-112.5 -33t-47.5 -98zM113 188q0 -70 47.5 -106.5t117.5 -36.5t117.5 36.5t47.5 106.5t-47.5 106.5t-117.5 36.5t-117.5 -36.5t-47.5 -106.5z" />
    <glyph glyph-name="nine" unicode="9" 
d="M267 647q-74 0 -113 -47.5t-39 -123.5q0 -69 40 -112t108 -43q72 0 119.5 46t47.5 118q0 71 -46 116.5t-117 45.5zM47 170h70q4 -125 150 -125q55 0 93 34.5t54 91.5t22 103.5t6 97.5h-2q-25 -50 -74 -78t-109 -28q-93 0 -152.5 61t-59.5 154q0 100 60.5 163t160.5 63
q246 0 246 -342q0 -61 -6 -111.5t-23 -102t-45.5 -87t-76.5 -57.5t-112 -22q-90 0 -142.5 50t-59.5 135z" />
    <glyph glyph-name="colon" unicode=":" horiz-adv-x="278" 
d="M99 502h80v-86h-80v86zM99 86h80v-86h-80v86z" />
    <glyph glyph-name="semicolon" unicode=";" horiz-adv-x="278" 
d="M121 81h81l-72 -205h-52zM107 502h80v-86h-80v86z" />
    <glyph glyph-name="less" unicode="&#x3c;" horiz-adv-x="660" 
d="M159 251l421 -197v-64l-500 235v53l500 223v-64z" />
    <glyph glyph-name="equal" unicode="=" horiz-adv-x="660" 
d="M580 378v-60h-500v60h500zM580 184v-60h-500v60h500z" />
    <glyph glyph-name="greater" unicode="&#x3e;" horiz-adv-x="660" 
d="M501 251l-421 197v64l500 -235v-53l-500 -223v64z" />
    <glyph glyph-name="question" unicode="?" horiz-adv-x="500" 
d="M234 169h-60v108q1 26 20.5 53t46.5 51l54 49.5t46 58t19 67.5q0 65 -46 93t-116 28q-44 0 -94 -15v61q46 14 110 14q91 0 151 -46t60 -133q0 -39 -16 -74t-33 -54.5t-54 -54.5q-15 -16 -36 -36.5l-28 -27.5t-15 -19.5t-9.5 -24t0.5 -28.5v-70zM164 86h80v-86h-80v86z
" />
    <glyph glyph-name="at" unicode="@" horiz-adv-x="800" 
d="M257 290q0 -38 20.5 -66t56.5 -28q63 1 113.5 91.5t50.5 166.5q0 30 -19 50.5t-49 20.5q-73 0 -123 -79t-50 -156zM539 520l15 46h66l-100 -300q-7 -19 -9.5 -31t-2.5 -23.5t7.5 -17t21.5 -5.5q39 0 76 37.5t59 92.5t22 108q0 117 -81.5 188.5t-198.5 71.5
q-136 0 -225 -96.5t-89 -233.5q0 -135 91 -228.5t225 -93.5q78 0 148.5 35.5t114.5 99.5h58q-46 -85 -134 -135t-187 -50q-159 0 -267.5 110.5t-108.5 268.5q0 154 110 263.5t262 109.5q144 0 243 -89t99 -224q0 -114 -74 -202t-157 -88q-29 0 -53 13.5t-32 38.5
q-48 -50 -119 -50q-62 0 -99.5 43t-37.5 106q0 68 30 136.5t88 116t128 47.5q36 0 66 -17t45 -48z" />
    <glyph glyph-name="A" unicode="A" horiz-adv-x="667" 
d="M173 255h315l-156 407zM76 0h-67l286 722h76l288 -722h-71l-77 195h-359z" />
    <glyph glyph-name="B" unicode="B" horiz-adv-x="667" 
d="M165 344v-284h159q98 -2 147 30t49 112q0 36 -12 62t-31.5 41.5t-50.5 24t-63.5 11.5t-77.5 3h-120zM165 404h157q71 0 119.5 31.5t48.5 99.5q0 125 -171 127h-154v-258zM375 0h-275v722l259 -1q84 0 142.5 -48.5t58.5 -131.5q0 -59 -38 -104t-96 -59v-2
q75 -12 119.5 -59.5t44.5 -123.5q0 -80 -53 -136.5t-162 -56.5z" />
    <glyph glyph-name="C" unicode="C" horiz-adv-x="667" 
d="M612 553h-70q-8 62 -55.5 93t-114.5 31q-66 0 -115 -28t-75.5 -75.5t-38.5 -100t-12 -112.5t12 -112.5t38.5 -100t75.5 -75.5t115 -28q65 0 115 33t63 97h70q-15 -88 -86 -139t-162 -51q-79 0 -140.5 30.5t-98 83t-54.5 119t-18 143.5q0 76 18.5 142.5t55 119.5
t97.5 83.5t140 30.5q97 0 165 -46t75 -138z" />
    <glyph glyph-name="D" unicode="D" horiz-adv-x="722" 
d="M156 60h146q147 0 216.5 79t69.5 222q0 156 -86 231t-244 70h-102v-602zM91 722h195q179 0 275.5 -91.5t96.5 -269.5t-96.5 -269.5t-275.5 -91.5h-195v722z" />
    <glyph glyph-name="E" unicode="E" horiz-adv-x="611" 
d="M546 0h-444v722h429v-60h-364v-259h350v-60h-350v-283h379v-60z" />
    <glyph glyph-name="F" unicode="F" 
d="M160 0h-65v722h408v-60h-343v-255h331v-60h-331v-347z" />
    <glyph glyph-name="G" unicode="G" horiz-adv-x="722" 
d="M385 368h246v-338q-115 -45 -259 -45q-145 0 -226.5 103t-81.5 273q0 72 19 137.5t56 119.5t97.5 86.5t135.5 32.5q97 0 171.5 -51t82.5 -142h-74q-9 65 -60 99t-120 34q-62 0 -109.5 -28t-74.5 -74.5t-40.5 -100.5t-13.5 -113q0 -146 66 -231t206 -85q58 0 160 30v233
h-181v60z" />
    <glyph glyph-name="H" unicode="H" horiz-adv-x="722" 
d="M164 0h-65v722h65v-317h394v317h65v-722h-65v345h-394v-345z" />
    <glyph glyph-name="I" unicode="I" horiz-adv-x="278" 
d="M172 0h-65v725h65v-725z" />
    <glyph glyph-name="J" unicode="J" horiz-adv-x="500" 
d="M13 178h70q5 -59 42 -96t95 -37q64 0 95.5 53t31.5 127v497h65v-487q0 -118 -50 -179q-58 -71 -163 -71q-83 0 -129 53.5t-57 139.5z" />
    <glyph glyph-name="K" unicode="K" horiz-adv-x="611" 
d="M170 0h-64v722h64l1 -318l323 318h82l-333 -326l363 -396h-89l-346 377z" />
    <glyph glyph-name="L" unicode="L" 
d="M528 0h-428v722h65v-662h363v-60z" />
    <glyph glyph-name="M" unicode="M" horiz-adv-x="944" 
d="M162 0h-65v722h104l271 -629l277 629h99v-722h-65v667h-2l-276 -667h-65l-276 664h-2v-664z" />
    <glyph glyph-name="N" unicode="N" horiz-adv-x="722" 
d="M92 0v722h74l398 -635h2v635h65v-722h-82l-390 624h-2v-624h-65z" />
    <glyph glyph-name="O" unicode="O" horiz-adv-x="778" 
d="M137 361q0 -62 14.5 -116.5t43.5 -100t79 -72.5t115 -27t115 27t79 72.5t43.5 100t14.5 116.5t-14.5 116.5t-43.5 100t-79 72.5t-115 27t-115 -27t-79 -72.5t-43.5 -100t-14.5 -116.5zM711 361q0 -172 -84.5 -274t-237.5 -102t-237.5 102t-84.5 274t84.5 274t237.5 102
t237.5 -102t84.5 -274z" />
    <glyph glyph-name="P" unicode="P" horiz-adv-x="611" 
d="M165 662v-288h158q183 0 183 144t-183 144h-158zM165 0h-65v722h181q58 1 106 -7t93 -29t70.5 -63.5t25.5 -104.5t-25.5 -104.5t-70.5 -63.5t-93 -29t-106 -7h-116v-314z" />
    <glyph glyph-name="Q" unicode="Q" horiz-adv-x="778" 
d="M738 0h-147q-9 0 -36 2t-51 2t-41 -5q-44 -14 -74 -14q-153 0 -237.5 102t-84.5 274t84.5 274t237.5 102t237.5 -102t84.5 -274q0 -93 -33.5 -174.5t-98.5 -131.5l2 -2q22 4 48 5t59.5 1t49.5 1v-60zM137 361q0 -62 14.5 -116.5t43.5 -100t79 -72.5t115 -27t115 27
t79 72.5t43.5 100t14.5 116.5t-14.5 116.5t-43.5 100t-79 72.5t-115 27t-115 -27t-79 -72.5t-43.5 -100t-14.5 -116.5z" />
    <glyph glyph-name="R" unicode="R" horiz-adv-x="667" 
d="M168 404h139q34 0 57.5 1.5t54 8.5t49 20t32 38.5t13.5 60.5q0 27 -7 48t-16.5 34.5t-28 23t-31 14t-36.5 7t-33.5 2.5h-33.5h-13h-146v-258zM168 344v-344h-65v722h236q109 0 170 -38q74 -44 74 -151q0 -58 -37.5 -98.5t-101.5 -56.5v-2q64 -10 88.5 -49.5t32.5 -111.5
q3 -30 7 -74.5t6 -62.5t8.5 -40t16.5 -38h-75q-17 48 -25 150q-4 47 -7.5 72.5t-10.5 51t-16 36t-26.5 20t-39.5 12t-56 2.5h-179z" />
    <glyph glyph-name="S" unicode="S" horiz-adv-x="611" 
d="M553 190q0 -57 -23 -98t-63.5 -63.5t-88 -33t-105.5 -10.5q-88 0 -150.5 57.5t-64.5 145.5h70q3 -143 181 -143q67 0 120.5 37t53.5 102q0 89 -113 126l-45.5 14.5t-50.5 16.5t-48 18.5t-48 23t-39.5 27.5t-34.5 35.5t-20.5 43.5t-8.5 53q0 90 69 142.5t161 52.5
q39 0 75 -8t71.5 -25.5t59 -53t29.5 -85.5h-70q-1 32 -14.5 55t-37 35t-49.5 17t-56 5q-64 0 -116 -32.5t-52 -93.5q0 -41 22.5 -71t58.5 -47t79.5 -31t87 -30t79.5 -37t58.5 -58t22.5 -87z" />
    <glyph glyph-name="T" unicode="T" 
d="M248 0l-1 662h-233v60h528v-60h-229l-1 -662h-64z" />
    <glyph glyph-name="U" unicode="U" horiz-adv-x="722" 
d="M97 722h65v-467q4 -98 57 -154t142 -56t142 56t57 154v467h65v-468q-2 -121 -69.5 -195t-194.5 -74t-194.5 74t-69.5 195v468z" />
    <glyph glyph-name="V" unicode="V" horiz-adv-x="611" 
d="M77 722l232 -657h2l229 657h65l-261 -722h-74l-264 722h71z" />
    <glyph glyph-name="W" unicode="W" horiz-adv-x="1000" 
d="M497 655l-207 -655h-92l-188 722h69l168 -657h2l211 657h79l220 -657h2l167 657h63l-190 -722h-89l-213 655h-2z" />
    <glyph glyph-name="X" unicode="X" horiz-adv-x="611" 
d="M301 323l-219 -323h-74l257 372l-244 350h85l204 -304l212 304h73l-250 -350l258 -372h-83z" />
    <glyph glyph-name="Y" unicode="Y" horiz-adv-x="611" 
d="M274 0v312l-266 410h83l221 -349l221 349h70l-264 -408v-314h-65z" />
    <glyph glyph-name="Z" unicode="Z" 
d="M517 0h-478v60l401 602h-401v60h478v-60l-402 -602h402v-60z" />
    <glyph glyph-name="bracketleft" unicode="[" horiz-adv-x="278" 
d="M222 -96h-137v818h137v-50h-72v-718h72v-50z" />
    <glyph glyph-name="backslash" unicode="\" horiz-adv-x="278" 
d="M258 0l-302 722h65l302 -722h-65z" />
    <glyph glyph-name="bracketright" unicode="]" horiz-adv-x="278" 
d="M56 722h137v-818h-137v50h72v718h-72v50z" />
    <glyph glyph-name="asciicircum" unicode="^" horiz-adv-x="660" 
d="M132 239h-58l230 453h52l231 -453h-57l-201 392z" />
    <glyph glyph-name="underscore" unicode="_" horiz-adv-x="500" 
d="M500 -124h-500v56h500v-56z" />
    <glyph glyph-name="grave" unicode="`" horiz-adv-x="278" 
d="M20 707h80l91 -143h-44z" />
    <glyph glyph-name="a" unicode="a" horiz-adv-x="500" 
d="M101 140q0 -49 32 -74.5t81 -25.5q162 0 150 213q-9 0 -40.5 -0.5t-49.5 -1.5t-48 -4t-49 -10.5t-38 -19.5t-28.5 -31.5t-9.5 -45.5zM364 308v46q-4 59 -33.5 83.5t-85.5 24.5q-113 0 -123 -87h-64q21 142 188 142q86 0 132.5 -41t45.5 -125v-238q0 -20 5 -113h-62l-2 74
h-2l-3 -7q-17 -33 -62.5 -57.5t-94.5 -24.5q-72 0 -119.5 42t-47.5 113q0 50 27.5 88t73.5 57q30 13 66 17.5t90.5 4.5t70.5 1z" />
    <glyph glyph-name="b" unicode="b" 
d="M292 462q-82 0 -122 -58t-40 -143q0 -97 40 -159t131 -62q41 0 70.5 20.5t45 54.5t22 69t6.5 74q0 52 -13.5 96t-49.5 76t-90 32zM130 74l-3 -74h-62q5 85 5 113v609h60v-294l2 -2q25 43 72.5 67t99.5 24q71 0 119 -40t67.5 -97.5t19.5 -126.5q0 -50 -11.5 -95.5t-35 -85
t-64 -63.5t-92.5 -24q-111 0 -175 93z" />
    <glyph glyph-name="c" unicode="c" horiz-adv-x="500" 
d="M462 348h-65q-7 114 -137 114q-67 0 -108 -61t-41 -149q0 -89 41 -150.5t108 -61.5q58 0 95.5 32.5t41.5 84.5h65q-24 -172 -196 -172q-106 0 -163 77.5t-57 188.5q0 110 59 188t165 78q80 0 134 -45.5t58 -123.5z" />
    <glyph glyph-name="d" unicode="d" 
d="M424 263q0 85 -40 142t-122 57q-54 0 -89.5 -31.5t-48.5 -75t-13 -95.5q0 -39 6.5 -74.5t21 -70t44 -55t70.5 -20.5q62 0 102 33t54.5 80.5t14.5 109.5zM429 0l-3 74l-2 4q-64 -93 -172 -93q-53 0 -94.5 24t-65 63.5t-35 85t-11.5 95.5q0 69 19.5 126.5t67.5 97.5t119 40
q52 0 99.5 -24t72.5 -67l2 2v294h60v-609q0 -28 5 -113h-62z" />
    <glyph glyph-name="e" unicode="e" 
d="M503 237h-388q2 -87 44.5 -142t129.5 -55q53 0 93.5 34t51.5 86h63q-45 -175 -227 -175q-106 0 -163 77.5t-57 188.5q0 110 59 188t165 78q119 0 174 -76.5t55 -203.5zM117 292h321q-6 77 -47 123.5t-116 46.5q-69 0 -110 -49t-48 -121z" />
    <glyph glyph-name="f" unicode="f" horiz-adv-x="333" 
d="M183 0h-60v447h-101v55h101v107q0 65 28.5 95t92.5 30q8 0 57 -11v-48q-24 4 -37 4q-56 0 -70 -25t-11 -88v-64h114v-55h-114v-447z" />
    <glyph glyph-name="g" unicode="g" 
d="M426 262q0 79 -42.5 139.5t-118.5 60.5q-51 0 -87.5 -32t-52 -76.5t-15.5 -93.5q0 -79 40.5 -141t116.5 -62q80 0 119.5 61t39.5 144zM426 428l3 74h62q-5 -85 -5 -113v-301v-12q0 -39 -0.5 -59t-6 -53.5t-16 -53.5t-31.5 -42.5t-52 -36.5q-48 -23 -114 -23
q-51 0 -93 11.5t-74 43t-32 80.5h65q5 -41 46 -60.5t96 -19.5q61 0 106 39t46 100v94h-2q-21 -43 -67 -68.5t-96 -25.5q-108 0 -162 71t-54 182q0 72 21 129t70.5 95t122.5 38q101 0 165 -93z" />
    <glyph glyph-name="h" unicode="h" 
d="M140 722v-296h2q51 91 157 91q47 0 81.5 -16t52 -38t28 -53t13 -52t2.5 -44v-314h-60v324q0 65 -35 101.5t-97 36.5q-70 0 -107 -50t-37 -123v-289h-60v722h60z" />
    <glyph glyph-name="i" unicode="i" horiz-adv-x="222" 
d="M81 502h60v-502h-60v502zM146 722v-75h-70v75h70z" />
    <glyph glyph-name="j" unicode="j" horiz-adv-x="222" 
d="M3 -192v55q57 -1 68 18.5t10 99.5v36v485h60v-524q0 -39 -1 -58.5t-5 -43t-12.5 -34t-24 -20.5t-38.5 -12.5t-57 -1.5zM146 722v-75h-70v75h70z" />
    <glyph glyph-name="k" unicode="k" horiz-adv-x="500" 
d="M146 722v-425l243 205h77l-254 -217l274 -285h-76l-264 272v-272h-60v722h60z" />
    <glyph glyph-name="l" unicode="l" horiz-adv-x="222" 
d="M141 722v-722h-60v722h60z" />
    <glyph glyph-name="m" unicode="m" horiz-adv-x="889" 
d="M136 502l3 -74l2 -2q51 91 157 91q59 0 102.5 -30t60.5 -80q69 110 173 110q47 0 81.5 -16t52 -38t28 -53t13 -52t2.5 -44v-314h-60v324q0 65 -35 101.5t-97 36.5q-70 0 -107 -50t-37 -123v-289h-60v324q0 65 -35 101.5t-97 36.5q-70 0 -107 -50t-37 -123v-289h-60v389
q0 28 -5 113h62z" />
    <glyph glyph-name="n" unicode="n" 
d="M140 289v-289h-60v389q0 28 -5 113h62l3 -74l2 -2q51 91 157 91q47 0 81.5 -16t52 -38t28 -53t13 -52t2.5 -44v-314h-60v324q0 65 -35 101.5t-97 36.5q-70 0 -107 -50t-37 -123z" />
    <glyph glyph-name="o" unicode="o" 
d="M447 251q0 81 -43 146t-126 65t-126 -65t-43 -146t43 -146t126 -65t126 65t43 146zM278 517q113 0 173.5 -79t60.5 -187t-60.5 -187t-173.5 -79t-173.5 79t-60.5 187t60.5 187t173.5 79z" />
    <glyph glyph-name="p" unicode="p" 
d="M130 263q0 -62 14.5 -109.5t54.5 -80.5t102 -33q41 0 70.5 20.5t45 55t22 70t6.5 74.5q0 52 -13.5 95.5t-49.5 75t-90 31.5q-82 0 -122 -57t-40 -142zM130 78v-270h-60v581q0 19 -5 113h62l3 -74l2 -2q25 43 72.5 67t99.5 24q71 0 119 -40t67.5 -97.5t19.5 -126.5
q0 -50 -11.5 -95.5t-35 -85t-64 -63.5t-92.5 -24q-111 0 -175 93h-2z" />
    <glyph glyph-name="q" unicode="q" 
d="M426 263q0 85 -40 142t-122 57q-54 0 -90 -31.5t-49.5 -75t-13.5 -95.5q0 -39 6.5 -74.5t22 -70t45 -55t70.5 -20.5q62 0 102 33t54.5 80.5t14.5 109.5zM426 428l3 74h62q-5 -85 -5 -113v-580h-60v269h-2q-64 -93 -175 -93q-52 0 -92.5 24t-64 63.5t-35 85t-11.5 95.5
q0 69 19.5 126.5t67.5 97.5t119 40q52 0 99 -23.5t73 -65.5v-3h2v3z" />
    <glyph glyph-name="r" unicode="r" horiz-adv-x="333" 
d="M140 302v-302h-60v389q0 19 -5 113h62l3 -74h2q14 38 45 63t68 26q20 1 60 -1v-58q-4 0 -17 2t-20 2q-65 0 -100.5 -43t-37.5 -117z" />
    <glyph glyph-name="s" unicode="s" horiz-adv-x="500" 
d="M63 377q0 72 54 106t130 34q173 0 183 -139h-65q-8 84 -124 84q-47 0 -80 -20t-33 -61q0 -21 10.5 -35t33.5 -23.5t47.5 -16l66 -17.5t75.5 -23q39 -14 62 -45.5t23 -71.5q0 -80 -62 -122t-149 -42q-47 0 -87.5 14t-70.5 50t-31 88h65q3 -52 42 -74.5t97 -22.5
q53 0 92 25.5t39 74.5q0 55 -70 80q-20 6 -89 22q-37 9 -59.5 16.5t-48.5 22.5t-38.5 39t-12.5 57z" />
    <glyph glyph-name="t" unicode="t" horiz-adv-x="333" 
d="M123 134v313h-100v55h100v107l60 26v-133h114v-55h-114v-336q-2 -71 69 -71q33 0 52 6v-52q-34 -9 -61 -9q-29 0 -50.5 5t-34.5 17t-20.5 22t-10.5 30t-3.5 31t-0.5 34v10z" />
    <glyph glyph-name="u" unicode="u" 
d="M416 213v289h60v-389q0 -28 5 -113h-62l-3 74l-2 2q-51 -91 -157 -91q-47 0 -81.5 16t-52 38t-28 53t-13 52t-2.5 44v314h60v-324q0 -65 35 -101.5t97 -36.5q70 0 107 50t37 123z" />
    <glyph glyph-name="v" unicode="v" horiz-adv-x="500" 
d="M14 502h66l173 -419l167 419h66l-199 -502h-68z" />
    <glyph glyph-name="w" unicode="w" horiz-adv-x="833" 
d="M82 502l150 -423h2l152 423h71l148 -419h2l145 419h66l-187 -502h-57l-154 433h-2l-157 -433h-61l-184 502h66z" />
    <glyph glyph-name="x" unicode="x" horiz-adv-x="500" 
d="M253 300l151 202h63l-180 -243l196 -259h-79l-161 218l-158 -218h-68l2 2l192 255l-185 245h80z" />
    <glyph glyph-name="y" unicode="y" horiz-adv-x="500" 
d="M8 502h73l169 -420l168 420h65l-277 -694h-66l76 192z" />
    <glyph glyph-name="z" unicode="z" horiz-adv-x="444" 
d="M40 0v55l293 392h-293v55h364v-55l-291 -392h291v-55h-364z" />
    <glyph glyph-name="braceleft" unicode="{" horiz-adv-x="278" 
d="M248 -46v-50h-50q-33 3 -60.5 33t-27.5 76v143q0 61 -14.5 92t-57.5 36v55q43 5 57.5 36.5t14.5 93.5v144q0 46 27.5 76t60.5 33h50v-50h-33q-40 -9 -40 -75v-143q0 -14 -1.5 -27t-4 -23.5t-6.5 -20.5t-8 -18t-9 -15t-9 -12t-9 -10t-8 -7.5t-6 -5.5l-4 -3q66 -49 65 -141
v-142q0 -66 40 -75h33z" />
    <glyph glyph-name="bar" unicode="|" horiz-adv-x="222" 
d="M81 -250v1000h60v-1000h-60z" />
    <glyph glyph-name="braceright" unicode="}" horiz-adv-x="278" 
d="M30 672v50h50q33 -3 60.5 -33t27.5 -76v-143q0 -62 14.5 -93t57.5 -36v-55q-43 -5 -57.5 -36t-14.5 -93v-144q0 -46 -27.5 -76t-60.5 -33h-50v50h33q40 9 40 75v143q0 14 1.5 27t4 23.5t6.5 20.5t8 18t9 15t9 12t9 10t8 7.5t6 5.5l4 3q-66 49 -65 141v142q0 66 -40 75
h-33z" />
    <glyph glyph-name="asciitilde" unicode="~" horiz-adv-x="660" 
d="M221 319q39 0 117 -36q80 -36 103 -36q53 0 99 87l40 -34q-57 -109 -140 -109q-33 0 -135 42l-24.5 12.5t-32.5 14t-27 4.5q-19 0 -35.5 -8t-31 -26t-21.5 -28.5t-20 -32.5l-33 47q20 30 34.5 47.5t44 36.5t62.5 19z" />
    <glyph glyph-name="exclamdown" unicode="&#xa1;" horiz-adv-x="389" 
d="M155 542h80v-86h-80v86zM167 371h56l13 -551h-82z" />
    <glyph glyph-name="cent" unicode="&#xa2;" 
d="M204 71l109 389q-20 2 -29 2q-67 0 -108 -61t-41 -149q0 -58 18 -106t51 -75zM328 514l35 125h44l-38 -134q51 -18 82.5 -58.5t34.5 -98.5h-65q-4 78 -67 102l-112 -402q21 -8 42 -8q58 0 95.5 32.5t41.5 84.5h65q-24 -172 -196 -172q-36 0 -63 9l-36 -127h-45l41 144
q-57 32 -87 96.5t-30 143.5q0 110 59 188t165 78q19 0 34 -3z" />
    <glyph glyph-name="sterling" unicode="&#xa3;" 
d="M505 0h-445v60h60v312h-74v60h75q-2 47 1.5 85t17 74.5t37.5 61t65.5 39.5t97.5 15q79 0 132.5 -38t54.5 -105h-70q-1 38 -36 60.5t-89 22.5q-74 0 -110.5 -47.5t-36.5 -125.5v-42h162v-60h-162v-312h320v-60z" />
    <glyph glyph-name="currency" unicode="&#xa4;" 
d="M32 110l43 42q-48 70 -48 148q0 83 48 151l-43 43l52 53l44 -43q65 49 154 49q75 0 146 -49l44 43l52 -53l-43 -43q48 -69 48 -156q0 -72 -48 -143l43 -42l-52 -53l-44 43q-68 -50 -155 -50q-74 0 -145 50l-44 -43zM276 120q75 0 129 53.5t54 129.5q0 72 -52.5 126.5
t-124.5 53.5q-78 2 -132 -51.5t-53 -131.5q-1 -72 53 -126t126 -54z" />
    <glyph glyph-name="yen" unicode="&#xa5;" 
d="M312 0h-65v136h-203v60h203v60h-203v60h201l-244 376h83l201 -319l200 319h70l-242 -376h199v-60h-200v-60h200v-60h-200v-136z" />
    <glyph glyph-name="brokenbar" unicode="&#xa6;" horiz-adv-x="222" 
d="M81 -175v350h60v-350h-60zM81 325v350h60v-350h-60z" />
    <glyph glyph-name="section" unicode="&#xa7;" 
d="M260 461l-19.5 -11.5t-20.5 -12.5t-16.5 -13t-15 -16t-8.5 -18.5t-4 -24.5q0 -11 5.5 -21.5t12 -17.5t20.5 -15t20.5 -11t23.5 -10t19 -8q5 3 24 13t27.5 15.5t21 16t18 22.5t5.5 27q0 24 -18 39t-52.5 28t-42.5 18zM405 718v-55q-44 19 -99 19q-46 0 -81.5 -18
t-35.5 -60q0 -28 25.5 -49.5t62.5 -35.5t73.5 -29.5t62 -41t25.5 -60.5q0 -74 -105 -122q52 -20 81.5 -49.5t29.5 -77.5q0 -76 -56.5 -115t-135.5 -39q-70 0 -129 22v57q58 -24 124 -24q53 0 92.5 24t39.5 74q0 29 -27.5 48.5t-67 32t-79 26.5t-67 42.5t-27.5 71.5
q0 40 31.5 71t75.5 50q-45 24 -69.5 51.5t-24.5 69.5q0 70 51.5 103t124.5 33q33 0 105 -19z" />
    <glyph glyph-name="dieresis" unicode="&#xa8;" horiz-adv-x="278" 
d="M263 619h-74v88h74v-88zM89 619h-74v88h74v-88z" />
    <glyph glyph-name="copyright" unicode="&#xa9;" horiz-adv-x="800" 
d="M401 -15q-156 0 -266.5 110.5t-110.5 266.5q0 155 110.5 265t266.5 110q155 0 265 -110t110 -265q0 -156 -110 -266.5t-265 -110.5zM84 362q0 -139 89.5 -228t227.5 -89q137 0 226 89t89 228q0 137 -89 226t-226 89q-138 0 -227.5 -89t-89.5 -226zM536 294h55
q-6 -66 -56 -106t-117 -40q-93 0 -150.5 61.5t-57.5 155.5q0 95 55.5 155t149.5 60q69 0 117.5 -37.5t58.5 -104.5h-55q-8 40 -42 66t-78 26q-70 0 -108 -47.5t-38 -116.5q0 -67 39.5 -117.5t108.5 -50.5q44 0 78 27t40 69z" />
    <glyph glyph-name="ordfeminine" unicode="&#xaa;" horiz-adv-x="300" 
d="M232 574v-2h-24.5t-29.5 -0.5t-29.5 -2.5t-29.5 -6t-23 -10t-17 -17t-6 -25q0 -53 66 -53q99 0 95 116h-2zM232 612v27q-3 35 -19.5 46.5t-53.5 11.5q-33 0 -52 -8.5t-23 -36.5h-46q12 85 122 85q56 0 86.5 -24.5t29.5 -74.5v-165q0 -9 2 -25t2 -21h-46l-3 40h-2
q-11 -20 -38 -34.5t-59 -14.5q-47 0 -78 25t-31 68q0 30 18 52.5t48 34.5q20 8 44 10.5t56 2.5t43 1z" />
    <glyph glyph-name="guillemotleft" unicode="&#xab;" 
d="M388 462h51l-93 -195l92 -195h-50l-106 195zM208 462h51l-93 -195l92 -195h-50l-106 195z" />
    <glyph glyph-name="logicalnot" unicode="&#xac;" horiz-adv-x="660" 
d="M520 112v206h-440v60h500v-266h-60z" />
    <glyph glyph-name="registered" unicode="&#xae;" horiz-adv-x="800" 
d="M401 -15q-156 0 -266.5 110.5t-110.5 266.5q0 155 110.5 265t266.5 110q155 0 265 -110t110 -265q0 -156 -110 -266.5t-265 -110.5zM401 45q137 0 226 89t89 228q0 137 -89 226t-226 89q-138 0 -227.5 -89t-89.5 -226q0 -139 89.5 -228t227.5 -89zM315 340v-191h-55v430
h185q81 0 115.5 -29.5t34.5 -89.5q0 -109 -133 -120l128 -191h-62l-121 191h-92zM315 390h76h22.5h25.5t23.5 1t23.5 4l18.5 8t17 12.5t9.5 19t4 26.5q0 41 -27.5 54.5t-74.5 13.5h-118v-139z" />
    <glyph glyph-name="macron" unicode="&#xaf;" horiz-adv-x="278" 
d="M262 647h-245v60h245v-60z" />
    <glyph glyph-name="macron" unicode="&#x2c9;" horiz-adv-x="278" 
d="M262 647h-245v60h245v-60z" />
    <glyph glyph-name="degree" unicode="&#xb0;" horiz-adv-x="400" 
d="M350 557q0 -62 -44 -106t-106 -44t-106 44t-44 106q-1 61 43.5 105.5t106.5 44.5t106 -44.5t44 -105.5zM95 557q0 -46 29.5 -75.5t75.5 -29.5q45 0 75 29.5t30 75.5q0 45 -30 75t-76 30q-45 0 -75 -30t-29 -75z" />
    <glyph glyph-name="plusminus" unicode="&#xb1;" horiz-adv-x="660" 
d="M300 330v172h60v-172h220v-60h-220v-170h-60v170h-220v60h220zM80 0v60h500v-60h-500z" />
    <glyph glyph-name="twosuperior" unicode="&#xb2;" horiz-adv-x="333" 
d="M315 283h-282v41q70 58 146 141.5t76 131.5q0 28 -22.5 45t-58.5 17q-39 0 -64 -21t-25 -50h-48q0 54 39 86.5t99 32.5q57 0 95.5 -27.5t38.5 -79.5q0 -34 -26 -77.5t-53 -73t-68.5 -70t-48.5 -48.5h202v-48z" />
    <glyph glyph-name="threesuperior" unicode="&#xb3;" horiz-adv-x="333" 
d="M146 476v48q48 -5 82 13t34 60q0 27 -25.5 44.5t-65.5 17.5q-80 0 -90 -62h-54q0 50 41 80t97 30q63 0 107 -28t44 -84q0 -37 -26 -61.5t-66 -32.5v-2q44 -8 71.5 -35.5t27.5 -68.5q0 -55 -46.5 -86.5t-107.5 -31.5q-63 0 -105 30t-43 87h54q1 -30 27.5 -49.5t65.5 -19.5
q46 0 73.5 20t27.5 55q0 45 -36.5 64t-86.5 12z" />
    <glyph glyph-name="acute" unicode="&#xb4;" horiz-adv-x="278" 
d="M178 707h80l-127 -143h-44z" />
    <glyph glyph-name="mu" unicode="&#xb5;" 
d="M416 213v289h60v-389q0 -28 5 -113h-62l-3 74l-2 2q-51 -91 -157 -91q-52 0 -117 25v-202h-60v694h60v-324q0 -65 35 -101.5t97 -36.5q70 0 107 50t37 123z" />
    <glyph glyph-name="mu" unicode="&#x3bc;" 
d="M416 213v289h60v-389q0 -28 5 -113h-62l-3 74l-2 2q-51 -91 -157 -91q-52 0 -117 25v-202h-60v694h60v-324q0 -65 35 -101.5t97 -36.5q70 0 107 50t37 123z" />
    <glyph glyph-name="paragraph" unicode="&#xb6;" horiz-adv-x="650" 
d="M258 -146v482q-77 -1 -134.5 56t-57.5 134q0 94 58.5 145t164.5 51h217v-868h-65v808h-118v-808h-65z" />
    <glyph glyph-name="periodcentered" unicode="&#xb7;" horiz-adv-x="278" 
d="M179 294v-86h-80v86h80z" />
    <glyph glyph-name="periodcentered" unicode="&#x2219;" horiz-adv-x="278" 
d="M179 294v-86h-80v86h80z" />
    <glyph glyph-name="cedilla" unicode="&#xb8;" horiz-adv-x="278" 
d="M28 -161l7 28q49 -19 89 -25q7 -1 21.5 2.5t20.5 8.5q12 11 12 32q0 36 -48 36q-5 0 -10.5 -0.5t-12 -1.5t-10.5 -1l28 87h23l-15 -55q22 0 37.5 -2t31.5 -8.5t24 -21t8 -35.5q0 -32 -29 -49t-64 -17q-15 0 -25.5 0.5t-23 3.5t-18 4t-22.5 6.5t-24 7.5z" />
    <glyph glyph-name="onesuperior" unicode="&#xb9;" horiz-adv-x="333" 
d="M227 283h-51v361q-41 -36 -102 -62v45q56 20 104 65h49v-409z" />
    <glyph glyph-name="ordmasculine" unicode="&#xba;" horiz-adv-x="334" 
d="M65 578q0 -47 26.5 -83.5t75.5 -36.5t75.5 36.5t26.5 83.5q0 46 -26.5 82.5t-75.5 36.5t-75.5 -36t-26.5 -83zM167 737q73 0 112.5 -47t39.5 -112q0 -66 -39.5 -113t-112.5 -47t-112.5 47t-39.5 113q0 65 39.5 112t112.5 47z" />
    <glyph glyph-name="guillemotright" unicode="&#xbb;" 
d="M168 72h-51l93 195l-92 195h50l106 -195zM348 72h-51l93 195l-92 195h50l106 -195z" />
    <glyph glyph-name="onequarter" unicode="&#xbc;" horiz-adv-x="834" 
d="M626 0v97h-212v31l201 287h62v-270h63v-48h-63v-97h-51zM652 707l-415 -707h-55l417 707h53zM626 145v213h-2l-140 -213h142zM259 283h-51v361q-41 -36 -102 -62v45q56 20 104 65h49v-409z" />
    <glyph glyph-name="onehalf" unicode="&#xbd;" horiz-adv-x="834" 
d="M652 707l-415 -707h-55l417 707h53zM259 283h-51v361q-41 -36 -102 -62v45q56 20 104 65h49v-409zM785 0h-282v41q70 58 146 141.5t76 131.5q0 28 -22.5 45t-58.5 17q-39 0 -64 -21t-25 -50h-48q0 54 39 86.5t99 32.5q57 0 95.5 -27.5t38.5 -79.5q0 -34 -26 -77.5
t-53 -73t-68.5 -70t-48.5 -48.5h202v-48z" />
    <glyph glyph-name="threequarters" unicode="&#xbe;" horiz-adv-x="834" 
d="M626 0v97h-212v31l201 287h62v-270h63v-48h-63v-97h-51zM652 707l-415 -707h-55l417 707h53zM626 145v213h-2l-140 -213h142zM146 476v48q48 -5 82 13t34 60q0 27 -25.5 44.5t-65.5 17.5q-80 0 -90 -62h-54q0 50 41 80t97 30q63 0 107 -28t44 -84q0 -37 -26 -61.5
t-66 -32.5v-2q44 -8 71.5 -35.5t27.5 -68.5q0 -55 -46.5 -86.5t-107.5 -31.5q-63 0 -105 30t-43 87h54q1 -30 27.5 -49.5t65.5 -19.5q46 0 73.5 20t27.5 55q0 45 -36.5 64t-86.5 12z" />
    <glyph glyph-name="questiondown" unicode="&#xbf;" horiz-adv-x="500" 
d="M265 376h60v-108q-1 -26 -20.5 -53t-46.5 -51l-54 -49.5t-46 -58t-19 -67.5q0 -65 46 -93t116 -28q44 0 94 15v-61q-46 -14 -110 -14q-91 0 -151 46t-60 133q0 39 16 74t33 54.5t54 54.5q15 16 36 36.5l28 27.5t15 19.5t9.5 24t-0.5 28.5v70zM255 542h80v-86h-80v86z" />
    <glyph glyph-name="Agrave" unicode="&#xc0;" horiz-adv-x="667" 
d="M173 255h315l-156 407zM76 0h-67l286 722h76l288 -722h-71l-77 195h-359zM215 927h80l91 -143h-44z" />
    <glyph glyph-name="Aacute" unicode="&#xc1;" horiz-adv-x="667" 
d="M173 255h315l-156 407zM76 0h-67l286 722h76l288 -722h-71l-77 195h-359zM373 927h80l-127 -143h-44z" />
    <glyph glyph-name="Acircumflex" unicode="&#xc2;" horiz-adv-x="667" 
d="M173 255h315l-156 407zM76 0h-67l286 722h76l288 -722h-71l-77 195h-359zM198 782l100 145h73l99 -145h-47l-89 106l-90 -106h-46z" />
    <glyph glyph-name="Atilde" unicode="&#xc3;" horiz-adv-x="667" 
d="M173 255h315l-156 407zM76 0h-67l286 722h76l288 -722h-71l-77 195h-359zM434 915h38q-9 -37 -32 -61t-59 -24q-16 0 -45 11q-30 10 -54 10q-40 0 -47 -29h-38q9 42 37.5 64.5t70.5 15.5q10 -1 40 -11q34 -9 39 -9q37 0 50 33z" />
    <glyph glyph-name="Adieresis" unicode="&#xc4;" horiz-adv-x="667" 
d="M173 255h315l-156 407zM76 0h-67l286 722h76l288 -722h-71l-77 195h-359zM458 839h-74v88h74v-88zM284 839h-74v88h74v-88z" />
    <glyph glyph-name="Aring" unicode="&#xc5;" horiz-adv-x="667" 
d="M173 255h315l-156 407zM76 0h-67l286 722h76l288 -722h-71l-77 195h-359zM246 869q0 36 26.5 62t61.5 26q36 0 62 -26t26 -62q0 -35 -26 -61.5t-62 -26.5q-35 0 -61.5 26.5t-26.5 61.5zM389 869q0 21 -17 38t-38 17t-38 -16.5t-17 -38.5q0 -20 17 -37.5t38 -17.5
q20 0 37.5 17.5t17.5 37.5z" />
    <glyph glyph-name="AE" unicode="&#xc6;" horiz-adv-x="1000" 
d="M426 722h499v-60h-389l43 -259h328v-60h-319l47 -283h299v-60h-356l-34 196h-350l-114 -196h-72zM465 662l-237 -406h308l-69 406h-2z" />
    <glyph glyph-name="Ccedilla" unicode="&#xc7;" horiz-adv-x="667" 
d="M248 -161l7 28q49 -19 89 -25q7 -1 21.5 2.5t20.5 8.5q12 11 12 32q0 36 -48 36l-33 -3l23 70q-94 8 -158.5 62t-92.5 133t-28 178q0 76 18.5 142.5t55 119.5t97.5 83.5t140 30.5q97 0 165 -46t75 -138h-70q-8 62 -55.5 93t-114.5 31q-66 0 -115 -28t-75.5 -75.5
t-38.5 -100t-12 -112.5t12 -112.5t38.5 -100t75.5 -75.5t115 -28q65 0 115 33t63 97h70q-15 -88 -86 -139t-162 -51q-7 0 -9 1l-10 -36q22 0 37.5 -2t31.5 -8.5t24 -21t8 -35.5q0 -32 -29 -49t-64 -17q-15 0 -25.5 0.5t-23 3.5t-18 4t-22.5 6.5t-24 7.5z" />
    <glyph glyph-name="Egrave" unicode="&#xc8;" horiz-adv-x="611" 
d="M546 0h-444v722h429v-60h-364v-259h350v-60h-350v-283h379v-60zM187 927h80l91 -143h-44z" />
    <glyph glyph-name="Eacute" unicode="&#xc9;" horiz-adv-x="611" 
d="M546 0h-444v722h429v-60h-364v-259h350v-60h-350v-283h379v-60zM345 927h80l-127 -143h-44z" />
    <glyph glyph-name="Ecircumflex" unicode="&#xca;" horiz-adv-x="611" 
d="M546 0h-444v722h429v-60h-364v-259h350v-60h-350v-283h379v-60zM170 782l100 145h73l99 -145h-47l-89 106l-90 -106h-46z" />
    <glyph glyph-name="Edieresis" unicode="&#xcb;" horiz-adv-x="611" 
d="M546 0h-444v722h429v-60h-364v-259h350v-60h-350v-283h379v-60zM430 839h-74v88h74v-88zM256 839h-74v88h74v-88z" />
    <glyph glyph-name="Igrave" unicode="&#xcc;" horiz-adv-x="278" 
d="M172 0h-65v725h65v-725zM20 927h80l91 -143h-44z" />
    <glyph glyph-name="Iacute" unicode="&#xcd;" horiz-adv-x="278" 
d="M172 0h-65v725h65v-725zM178 927h80l-127 -143h-44z" />
    <glyph glyph-name="Icircumflex" unicode="&#xce;" horiz-adv-x="278" 
d="M172 0h-65v725h65v-725zM3 782l100 145h73l99 -145h-47l-89 106l-90 -106h-46z" />
    <glyph glyph-name="Idieresis" unicode="&#xcf;" horiz-adv-x="278" 
d="M172 0h-65v725h65v-725zM263 839h-74v88h74v-88zM89 839h-74v88h74v-88z" />
    <glyph glyph-name="Eth" unicode="&#xd0;" horiz-adv-x="722" 
d="M156 662v-242h216v-45h-216v-315h146q147 0 216.5 79t69.5 222q0 156 -86 231t-244 70h-102zM91 0v375h-68v45h68v302h195q179 0 275.5 -91.5t96.5 -269.5t-96.5 -269.5t-275.5 -91.5h-195z" />
    <glyph glyph-name="Ntilde" unicode="&#xd1;" horiz-adv-x="722" 
d="M92 0v722h74l398 -635h2v635h65v-722h-82l-390 624h-2v-624h-65zM461 915h38q-9 -37 -32 -61t-59 -24q-16 0 -45 11q-30 10 -54 10q-40 0 -47 -29h-38q9 42 37.5 64.5t70.5 15.5q10 -1 40 -11q34 -9 39 -9q37 0 50 33z" />
    <glyph glyph-name="Ograve" unicode="&#xd2;" horiz-adv-x="778" 
d="M137 361q0 -62 14.5 -116.5t43.5 -100t79 -72.5t115 -27t115 27t79 72.5t43.5 100t14.5 116.5t-14.5 116.5t-43.5 100t-79 72.5t-115 27t-115 -27t-79 -72.5t-43.5 -100t-14.5 -116.5zM711 361q0 -172 -84.5 -274t-237.5 -102t-237.5 102t-84.5 274t84.5 274t237.5 102
t237.5 -102t84.5 -274zM270 927h80l91 -143h-44z" />
    <glyph glyph-name="Oacute" unicode="&#xd3;" horiz-adv-x="778" 
d="M137 361q0 -62 14.5 -116.5t43.5 -100t79 -72.5t115 -27t115 27t79 72.5t43.5 100t14.5 116.5t-14.5 116.5t-43.5 100t-79 72.5t-115 27t-115 -27t-79 -72.5t-43.5 -100t-14.5 -116.5zM711 361q0 -172 -84.5 -274t-237.5 -102t-237.5 102t-84.5 274t84.5 274t237.5 102
t237.5 -102t84.5 -274zM428 927h80l-127 -143h-44z" />
    <glyph glyph-name="Ocircumflex" unicode="&#xd4;" horiz-adv-x="778" 
d="M137 361q0 -62 14.5 -116.5t43.5 -100t79 -72.5t115 -27t115 27t79 72.5t43.5 100t14.5 116.5t-14.5 116.5t-43.5 100t-79 72.5t-115 27t-115 -27t-79 -72.5t-43.5 -100t-14.5 -116.5zM711 361q0 -172 -84.5 -274t-237.5 -102t-237.5 102t-84.5 274t84.5 274t237.5 102
t237.5 -102t84.5 -274zM253 782l100 145h73l99 -145h-47l-89 106l-90 -106h-46z" />
    <glyph glyph-name="Otilde" unicode="&#xd5;" horiz-adv-x="778" 
d="M137 361q0 -62 14.5 -116.5t43.5 -100t79 -72.5t115 -27t115 27t79 72.5t43.5 100t14.5 116.5t-14.5 116.5t-43.5 100t-79 72.5t-115 27t-115 -27t-79 -72.5t-43.5 -100t-14.5 -116.5zM711 361q0 -172 -84.5 -274t-237.5 -102t-237.5 102t-84.5 274t84.5 274t237.5 102
t237.5 -102t84.5 -274zM489 915h38q-9 -37 -32 -61t-59 -24q-16 0 -45 11q-30 10 -54 10q-40 0 -47 -29h-38q9 42 37.5 64.5t70.5 15.5q11 -1 40 -11q34 -9 39 -9q37 0 50 33z" />
    <glyph glyph-name="Odieresis" unicode="&#xd6;" horiz-adv-x="778" 
d="M137 361q0 -62 14.5 -116.5t43.5 -100t79 -72.5t115 -27t115 27t79 72.5t43.5 100t14.5 116.5t-14.5 116.5t-43.5 100t-79 72.5t-115 27t-115 -27t-79 -72.5t-43.5 -100t-14.5 -116.5zM711 361q0 -172 -84.5 -274t-237.5 -102t-237.5 102t-84.5 274t84.5 274t237.5 102
t237.5 -102t84.5 -274zM513 839h-74v88h74v-88zM339 839h-74v88h74v-88z" />
    <glyph glyph-name="multiply" unicode="&#xd7;" horiz-adv-x="660" 
d="M331 216l-214 -210l-37 36l214 211l-214 211l37 38l214 -212l212 212l37 -38l-212 -211l212 -211l-37 -36z" />
    <glyph glyph-name="Oslash" unicode="&#xd8;" horiz-adv-x="778" 
d="M186 160l385 433q-66 84 -182 84q-65 0 -115 -27t-79 -72.5t-43.5 -100t-14.5 -116.5q0 -122 49 -201zM163 76l-80 -91l-29 27l84 94q-71 95 -71 255q0 172 84.5 274t237.5 102q142 0 228 -92l82 92l27 -25l-85 -97q70 -97 70 -254q0 -172 -84.5 -274t-237.5 -102
q-141 0 -226 91zM593 561l-384 -434q66 -82 180 -82q65 0 115 27t79 72.5t43.5 100t14.5 116.5q0 117 -48 200z" />
    <glyph glyph-name="Ugrave" unicode="&#xd9;" horiz-adv-x="722" 
d="M97 722h65v-467q4 -98 57 -154t142 -56t142 56t57 154v467h65v-468q-2 -121 -69.5 -195t-194.5 -74t-194.5 74t-69.5 195v468zM242 927h80l91 -143h-44z" />
    <glyph glyph-name="Uacute" unicode="&#xda;" horiz-adv-x="722" 
d="M97 722h65v-467q4 -98 57 -154t142 -56t142 56t57 154v467h65v-468q-2 -121 -69.5 -195t-194.5 -74t-194.5 74t-69.5 195v468zM400 927h80l-127 -143h-44z" />
    <glyph glyph-name="Ucircumflex" unicode="&#xdb;" horiz-adv-x="722" 
d="M97 722h65v-467q4 -98 57 -154t142 -56t142 56t57 154v467h65v-468q-2 -121 -69.5 -195t-194.5 -74t-194.5 74t-69.5 195v468zM225 782l100 145h73l99 -145h-47l-89 106l-90 -106h-46z" />
    <glyph glyph-name="Udieresis" unicode="&#xdc;" horiz-adv-x="722" 
d="M97 722h65v-467q4 -98 57 -154t142 -56t142 56t57 154v467h65v-468q-2 -121 -69.5 -195t-194.5 -74t-194.5 74t-69.5 195v468zM485 839h-74v88h74v-88zM311 839h-74v88h74v-88z" />
    <glyph glyph-name="Yacute" unicode="&#xdd;" horiz-adv-x="611" 
d="M274 0v312l-266 410h83l221 -349l221 349h70l-264 -408v-314h-65zM345 927h80l-127 -143h-44z" />
    <glyph glyph-name="Thorn" unicode="&#xde;" horiz-adv-x="611" 
d="M165 507v-288h158q183 0 183 144t-183 144h-158zM100 0v722h65v-155h143q56 0 99.5 -8t84 -29t62.5 -63t22 -104t-22 -104t-62.5 -63t-84 -29t-99.5 -8h-143v-159h-65z" />
    <glyph glyph-name="germandbls" unicode="&#xdf;" horiz-adv-x="611" 
d="M147 488v-488h-60v509q1 106 51.5 167t153.5 61q74 0 127 -41.5t53 -113.5q0 -34 -29.5 -68.5t-59 -63t-29.5 -48.5q0 -23 16 -42t40 -31.5t52 -29t52 -34t40 -46.5t16 -65q0 -78 -49.5 -123.5t-122.5 -45.5q-72 0 -115.5 41.5t-46.5 114.5h65q-1 -45 25.5 -73t69.5 -28
q51 0 80 28t29 83q0 32 -22 56.5t-54 42l-64 35.5t-54 46t-22 64q0 29 18.5 56t40.5 45t40.5 41.5t18.5 46.5q0 47 -36.5 72.5t-85.5 25.5q-39 0 -67.5 -17.5t-43 -47t-21 -61.5t-6.5 -68z" />
    <glyph glyph-name="agrave" unicode="&#xe0;" horiz-adv-x="500" 
d="M101 140q0 -49 32 -74.5t81 -25.5q162 0 150 213q-9 0 -40.5 -0.5t-49.5 -1.5t-48 -4t-49 -10.5t-38 -19.5t-28.5 -31.5t-9.5 -45.5zM364 308v46q-4 59 -33.5 83.5t-85.5 24.5q-113 0 -123 -87h-64q21 142 188 142q86 0 132.5 -41t45.5 -125v-238q0 -20 5 -113h-62l-2 74
h-2l-3 -7q-17 -33 -62.5 -57.5t-94.5 -24.5q-72 0 -119.5 42t-47.5 113q0 50 27.5 88t73.5 57q30 13 66 17.5t90.5 4.5t70.5 1zM131 707h80l91 -143h-44z" />
    <glyph glyph-name="aacute" unicode="&#xe1;" horiz-adv-x="500" 
d="M101 140q0 -49 32 -74.5t81 -25.5q162 0 150 213q-9 0 -40.5 -0.5t-49.5 -1.5t-48 -4t-49 -10.5t-38 -19.5t-28.5 -31.5t-9.5 -45.5zM364 308v46q-4 59 -33.5 83.5t-85.5 24.5q-113 0 -123 -87h-64q21 142 188 142q86 0 132.5 -41t45.5 -125v-238q0 -20 5 -113h-62l-2 74
h-2l-3 -7q-17 -33 -62.5 -57.5t-94.5 -24.5q-72 0 -119.5 42t-47.5 113q0 50 27.5 88t73.5 57q30 13 66 17.5t90.5 4.5t70.5 1zM289 707h80l-127 -143h-44z" />
    <glyph glyph-name="acircumflex" unicode="&#xe2;" horiz-adv-x="500" 
d="M101 140q0 -49 32 -74.5t81 -25.5q162 0 150 213q-9 0 -40.5 -0.5t-49.5 -1.5t-48 -4t-49 -10.5t-38 -19.5t-28.5 -31.5t-9.5 -45.5zM364 308v46q-4 59 -33.5 83.5t-85.5 24.5q-113 0 -123 -87h-64q21 142 188 142q86 0 132.5 -41t45.5 -125v-238q0 -20 5 -113h-62l-2 74
h-2l-3 -7q-17 -33 -62.5 -57.5t-94.5 -24.5q-72 0 -119.5 42t-47.5 113q0 50 27.5 88t73.5 57q30 13 66 17.5t90.5 4.5t70.5 1zM114 562l100 145h73l99 -145h-47l-89 106l-90 -106h-46z" />
    <glyph glyph-name="atilde" unicode="&#xe3;" horiz-adv-x="500" 
d="M101 140q0 -49 32 -74.5t81 -25.5q162 0 150 213q-9 0 -40.5 -0.5t-49.5 -1.5t-48 -4t-49 -10.5t-38 -19.5t-28.5 -31.5t-9.5 -45.5zM364 308v46q-4 59 -33.5 83.5t-85.5 24.5q-113 0 -123 -87h-64q21 142 188 142q86 0 132.5 -41t45.5 -125v-238q0 -20 5 -113h-62l-2 74
h-2l-3 -7q-17 -33 -62.5 -57.5t-94.5 -24.5q-72 0 -119.5 42t-47.5 113q0 50 27.5 88t73.5 57q30 13 66 17.5t90.5 4.5t70.5 1zM350 695h38q-9 -37 -32 -61t-59 -24q-16 0 -45 11q-30 10 -54 10q-40 0 -47 -29h-38q9 42 37.5 64.5t70.5 15.5q11 -1 40 -11q34 -9 39 -9
q37 0 50 33z" />
    <glyph glyph-name="adieresis" unicode="&#xe4;" horiz-adv-x="500" 
d="M101 140q0 -49 32 -74.5t81 -25.5q162 0 150 213q-9 0 -40.5 -0.5t-49.5 -1.5t-48 -4t-49 -10.5t-38 -19.5t-28.5 -31.5t-9.5 -45.5zM364 308v46q-4 59 -33.5 83.5t-85.5 24.5q-113 0 -123 -87h-64q21 142 188 142q86 0 132.5 -41t45.5 -125v-238q0 -20 5 -113h-62l-2 74
h-2l-3 -7q-17 -33 -62.5 -57.5t-94.5 -24.5q-72 0 -119.5 42t-47.5 113q0 50 27.5 88t73.5 57q30 13 66 17.5t90.5 4.5t70.5 1zM374 619h-74v88h74v-88zM200 619h-74v88h74v-88z" />
    <glyph glyph-name="aring" unicode="&#xe5;" horiz-adv-x="500" 
d="M101 140q0 -49 32 -74.5t81 -25.5q162 0 150 213q-9 0 -40.5 -0.5t-49.5 -1.5t-48 -4t-49 -10.5t-38 -19.5t-28.5 -31.5t-9.5 -45.5zM364 308v46q-4 59 -33.5 83.5t-85.5 24.5q-113 0 -123 -87h-64q21 142 188 142q86 0 132.5 -41t45.5 -125v-238q0 -20 5 -113h-62l-2 74
h-2l-3 -7q-17 -33 -62.5 -57.5t-94.5 -24.5q-72 0 -119.5 42t-47.5 113q0 50 27.5 88t73.5 57q30 13 66 17.5t90.5 4.5t70.5 1zM162 649q0 36 26.5 62t61.5 26q36 0 62 -26t26 -62q0 -35 -26 -61.5t-62 -26.5q-35 0 -61.5 26.5t-26.5 61.5zM305 649q0 21 -17 38t-38 17
t-38 -16.5t-17 -38.5q0 -20 17 -37.5t38 -17.5q20 0 37.5 17.5t17.5 37.5z" />
    <glyph glyph-name="ae" unicode="&#xe6;" horiz-adv-x="833" 
d="M428 299h285q0 72 -35.5 117.5t-110.5 45.5q-64 0 -102.5 -51.5t-36.5 -111.5zM122 375h-64q21 142 188 142q56 -4 101.5 -31t55.5 -74h2q22 50 64 76.5t90 28.5q112 0 165.5 -75.5t53.5 -197.5h-350q-1 -55 10.5 -98.5t43.5 -74.5t82 -31q53 0 93.5 34t51.5 86h63
q-45 -175 -207 -175q-57 5 -101 35t-66 84q-40 -109 -195 -119q-72 0 -119.5 42t-47.5 113q0 93 101 137q30 13 65.5 17.5t92 4t68.5 0.5v55q-4 59 -33 83.5t-85 24.5q-113 0 -123 -87zM363 243l-77 1q-34 0 -55 -1t-49 -7.5t-43.5 -18.5t-26.5 -35t-11 -56q0 -41 36 -63.5
t79 -22.5q46 0 77 16.5t46 47t20 63.5t4 76z" />
    <glyph glyph-name="ccedilla" unicode="&#xe7;" horiz-adv-x="500" 
d="M158 -161l7 28q49 -19 89 -25q7 -1 21.5 2.5t20.5 8.5q12 11 12 32q0 36 -48 36q-5 0 -10.5 -0.5t-12 -1.5t-10.5 -1l22 68q-67 4 -114 43.5t-68 96.5t-21 125q0 110 59 188t165 78q80 0 134 -45.5t58 -123.5h-65q-7 114 -137 114q-67 0 -108 -61t-41 -149
q0 -89 41 -150.5t108 -61.5q58 0 95.5 32.5t41.5 84.5h65q-24 -169 -189 -171l-10 -36q22 0 37.5 -2t31.5 -8.5t24 -21t8 -35.5q0 -32 -29 -49t-64 -17q-15 0 -25.5 0.5t-23 3.5t-18 4t-22.5 6.5t-24 7.5z" />
    <glyph glyph-name="egrave" unicode="&#xe8;" 
d="M503 237h-388q2 -87 44.5 -142t129.5 -55q53 0 93.5 34t51.5 86h63q-45 -175 -227 -175q-106 0 -163 77.5t-57 188.5q0 110 59 188t165 78q119 0 174 -76.5t55 -203.5zM117 292h321q-6 77 -47 123.5t-116 46.5q-69 0 -110 -49t-48 -121zM159 707h80l91 -143h-44z" />
    <glyph glyph-name="eacute" unicode="&#xe9;" 
d="M503 237h-388q2 -87 44.5 -142t129.5 -55q53 0 93.5 34t51.5 86h63q-45 -175 -227 -175q-106 0 -163 77.5t-57 188.5q0 110 59 188t165 78q119 0 174 -76.5t55 -203.5zM117 292h321q-6 77 -47 123.5t-116 46.5q-69 0 -110 -49t-48 -121zM317 707h80l-127 -143h-44z" />
    <glyph glyph-name="ecircumflex" unicode="&#xea;" 
d="M503 237h-388q2 -87 44.5 -142t129.5 -55q53 0 93.5 34t51.5 86h63q-45 -175 -227 -175q-106 0 -163 77.5t-57 188.5q0 110 59 188t165 78q119 0 174 -76.5t55 -203.5zM117 292h321q-6 77 -47 123.5t-116 46.5q-69 0 -110 -49t-48 -121zM142 562l100 145h73l99 -145h-47
l-89 106l-90 -106h-46z" />
    <glyph glyph-name="edieresis" unicode="&#xeb;" 
d="M503 237h-388q2 -87 44.5 -142t129.5 -55q53 0 93.5 34t51.5 86h63q-45 -175 -227 -175q-106 0 -163 77.5t-57 188.5q0 110 59 188t165 78q119 0 174 -76.5t55 -203.5zM117 292h321q-6 77 -47 123.5t-116 46.5q-69 0 -110 -49t-48 -121zM402 619h-74v88h74v-88zM228 619
h-74v88h74v-88z" />
    <glyph glyph-name="igrave" unicode="&#xec;" horiz-adv-x="222" 
d="M141 0h-60v502h60v-502zM-8 707h80l91 -143h-44z" />
    <glyph glyph-name="iacute" unicode="&#xed;" horiz-adv-x="222" 
d="M141 0h-60v502h60v-502zM150 707h80l-127 -143h-44z" />
    <glyph glyph-name="icircumflex" unicode="&#xee;" horiz-adv-x="222" 
d="M141 0h-60v502h60v-502zM-25 562l100 145h73l99 -145h-47l-89 106l-90 -106h-46z" />
    <glyph glyph-name="idieresis" unicode="&#xef;" horiz-adv-x="222" 
d="M141 0h-60v502h60v-502zM235 619h-74v88h74v-88zM61 619h-74v88h74v-88z" />
    <glyph glyph-name="eth" unicode="&#xf0;" 
d="M155 697l17 40q71 -16 127 -45l93 58l30 -28l-85 -53q175 -119 175 -401q0 -133 -60.5 -208t-173.5 -75q-76 0 -131 37.5t-79 93.5t-24 121q0 103 59.5 178t166.5 75q126 0 178 -129l2 2q-7 78 -45.5 153.5t-115.5 122.5l-93 -57l-29 29l83 51q-38 19 -95 35zM109 237
q0 -77 43 -138.5t126 -61.5t126 61.5t43 138.5t-43 139t-126 62t-126 -62t-43 -139z" />
    <glyph glyph-name="ntilde" unicode="&#xf1;" 
d="M140 289v-289h-60v389q0 28 -5 113h62l3 -74l2 -2q51 91 157 91q47 0 81.5 -16t52 -38t28 -53t13 -52t2.5 -44v-314h-60v324q0 65 -35 101.5t-97 36.5q-70 0 -107 -50t-37 -123zM378 695h38q-9 -37 -32 -61t-59 -24q-16 0 -45 11q-30 10 -54 10q-40 0 -47 -29h-38
q9 42 37.5 64.5t70.5 15.5q10 -1 40 -11q34 -9 39 -9q37 0 50 33z" />
    <glyph glyph-name="ograve" unicode="&#xf2;" 
d="M447 251q0 81 -43 146t-126 65t-126 -65t-43 -146t43 -146t126 -65t126 65t43 146zM278 517q113 0 173.5 -79t60.5 -187t-60.5 -187t-173.5 -79t-173.5 79t-60.5 187t60.5 187t173.5 79zM159 707h80l91 -143h-44z" />
    <glyph glyph-name="oacute" unicode="&#xf3;" 
d="M447 251q0 81 -43 146t-126 65t-126 -65t-43 -146t43 -146t126 -65t126 65t43 146zM278 517q113 0 173.5 -79t60.5 -187t-60.5 -187t-173.5 -79t-173.5 79t-60.5 187t60.5 187t173.5 79zM317 707h80l-127 -143h-44z" />
    <glyph glyph-name="ocircumflex" unicode="&#xf4;" 
d="M447 251q0 81 -43 146t-126 65t-126 -65t-43 -146t43 -146t126 -65t126 65t43 146zM278 517q113 0 173.5 -79t60.5 -187t-60.5 -187t-173.5 -79t-173.5 79t-60.5 187t60.5 187t173.5 79zM142 562l100 145h73l99 -145h-47l-89 106l-90 -106h-46z" />
    <glyph glyph-name="otilde" unicode="&#xf5;" 
d="M447 251q0 81 -43 146t-126 65t-126 -65t-43 -146t43 -146t126 -65t126 65t43 146zM278 517q113 0 173.5 -79t60.5 -187t-60.5 -187t-173.5 -79t-173.5 79t-60.5 187t60.5 187t173.5 79zM378 695h38q-9 -37 -32 -61t-59 -24q-16 0 -45 11q-30 10 -54 10q-40 0 -47 -29
h-38q9 42 37.5 64.5t70.5 15.5q10 -1 40 -11q34 -9 39 -9q37 0 50 33z" />
    <glyph glyph-name="odieresis" unicode="&#xf6;" 
d="M447 251q0 81 -43 146t-126 65t-126 -65t-43 -146t43 -146t126 -65t126 65t43 146zM278 517q113 0 173.5 -79t60.5 -187t-60.5 -187t-173.5 -79t-173.5 79t-60.5 187t60.5 187t173.5 79zM402 619h-74v88h74v-88zM228 619h-74v88h74v-88z" />
    <glyph glyph-name="divide" unicode="&#xf7;" horiz-adv-x="660" 
d="M80 221v60h500v-60h-500zM368 0h-75v88h75v-88zM368 414h-75v88h75v-88z" />
    <glyph glyph-name="oslash" unicode="&#xf8;" 
d="M140 127l255 280q-45 55 -117 55q-83 0 -126 -65t-43 -146q0 -69 31 -124zM415 377l-256 -280q45 -57 119 -57q83 0 126 65t43 146q0 71 -32 126zM33 10l62 68q-51 71 -51 173q0 108 60.5 187t173.5 79q98 0 159 -64l59 64l24 -25l-60 -66q52 -73 52 -175
q0 -108 -60.5 -187t-173.5 -79q-99 0 -161 65l-60 -65z" />
    <glyph glyph-name="ugrave" unicode="&#xf9;" 
d="M416 213v289h60v-389q0 -28 5 -113h-62l-3 74l-2 2q-51 -91 -157 -91q-47 0 -81.5 16t-52 38t-28 53t-13 52t-2.5 44v314h60v-324q0 -65 35 -101.5t97 -36.5q70 0 107 50t37 123zM159 707h80l91 -143h-44z" />
    <glyph glyph-name="uacute" unicode="&#xfa;" 
d="M416 213v289h60v-389q0 -28 5 -113h-62l-3 74l-2 2q-51 -91 -157 -91q-47 0 -81.5 16t-52 38t-28 53t-13 52t-2.5 44v314h60v-324q0 -65 35 -101.5t97 -36.5q70 0 107 50t37 123zM317 707h80l-127 -143h-44z" />
    <glyph glyph-name="ucircumflex" unicode="&#xfb;" 
d="M416 213v289h60v-389q0 -28 5 -113h-62l-3 74l-2 2q-51 -91 -157 -91q-47 0 -81.5 16t-52 38t-28 53t-13 52t-2.5 44v314h60v-324q0 -65 35 -101.5t97 -36.5q70 0 107 50t37 123zM142 562l100 145h73l99 -145h-47l-89 106l-90 -106h-46z" />
    <glyph glyph-name="udieresis" unicode="&#xfc;" 
d="M416 213v289h60v-389q0 -28 5 -113h-62l-3 74l-2 2q-51 -91 -157 -91q-47 0 -81.5 16t-52 38t-28 53t-13 52t-2.5 44v314h60v-324q0 -65 35 -101.5t97 -36.5q70 0 107 50t37 123zM402 619h-74v88h74v-88zM228 619h-74v88h74v-88z" />
    <glyph glyph-name="yacute" unicode="&#xfd;" horiz-adv-x="500" 
d="M8 502h73l169 -420l168 420h65l-277 -694h-66l76 192zM289 707h80l-127 -143h-44z" />
    <glyph glyph-name="thorn" unicode="&#xfe;" 
d="M130 263q0 -62 14.5 -109.5t54.5 -80.5t102 -33q41 0 70.5 20.5t45 55t22 70t6.5 74.5q0 52 -13.5 95.5t-49.5 75t-90 31.5q-82 0 -122 -57t-40 -142zM130 78v-270h-60v914h60v-294l2 -2q25 43 72.5 67t99.5 24q71 0 119 -40t67.5 -97.5t19.5 -126.5q0 -50 -11.5 -95.5
t-35 -85t-64 -63.5t-92.5 -24q-111 0 -175 93h-2z" />
    <glyph glyph-name="ydieresis" unicode="&#xff;" horiz-adv-x="500" 
d="M8 502h73l169 -420l168 420h65l-277 -694h-66l76 192zM374 619h-74v88h74v-88zM200 619h-74v88h74v-88z" />
    <glyph glyph-name="dotlessi" unicode="&#x131;" horiz-adv-x="222" 
d="M141 0h-60v502h60v-502z" />
    <glyph glyph-name="Lslash" unicode="&#x141;" 
d="M528 0h-428v399l-94 -37v40l94 37v283h65v-257l94 37v-40l-94 -37v-365h363v-60z" />
    <glyph glyph-name="lslash" unicode="&#x142;" horiz-adv-x="222" 
d="M81 722h60v-250l76 30v-34l-76 -31v-437h-60v413l-76 -30v34l76 31v274z" />
    <glyph glyph-name="OE" unicode="&#x152;" horiz-adv-x="1000" 
d="M131 361q0 -83 23.5 -152.5t78 -116.5t130.5 -47q89 3 139.5 48.5t50.5 127.5v253q1 107 -47 155t-143 48q-76 0 -130.5 -47t-78 -116.5t-23.5 -152.5zM555 0v69h-4q-31 -41 -82.5 -62.5t-105.5 -21.5q-139 0 -220.5 103t-81.5 273t81.5 273t220.5 103q115 0 192 -78v63
h376v-60h-311v-259h297v-60h-297v-283h326v-60h-391z" />
    <glyph glyph-name="oe" unicode="&#x153;" horiz-adv-x="889" 
d="M425 256q0 83 -37 145t-119 61q-77 0 -118.5 -65.5t-41.5 -145.5t41.5 -145.5t118.5 -65.5q44 0 76 18.5t48.5 51.5t24 69t7.5 77zM490 292h285q0 77 -35.5 123.5t-110.5 46.5q-64 0 -102.5 -52.5t-36.5 -117.5zM840 237h-350q-2 -82 31 -140.5t105 -56.5q53 0 93.5 34
t51.5 86h63q-45 -175 -207 -175q-60 0 -107 32t-63 93h-2q-22 -60 -70 -92.5t-107 -32.5q-113 0 -173.5 79t-60.5 187t60.5 187t173.5 79q60 0 107 -33t71 -92q19 60 66 92.5t99 32.5q112 0 165.5 -76.5t53.5 -203.5z" />
    <glyph glyph-name="Scaron" unicode="&#x160;" horiz-adv-x="611" 
d="M553 190q0 -57 -23 -98t-63.5 -63.5t-88 -33t-105.5 -10.5q-88 0 -150.5 57.5t-64.5 145.5h70q3 -143 181 -143q67 0 120.5 37t53.5 102q0 89 -113 126l-45.5 14.5t-50.5 16.5t-48 18.5t-48 23t-39.5 27.5t-34.5 35.5t-20.5 43.5t-8.5 53q0 90 69 142.5t161 52.5
q39 0 75 -8t71.5 -25.5t59 -53t29.5 -85.5h-70q-1 32 -14.5 55t-37 35t-49.5 17t-56 5q-64 0 -116 -32.5t-52 -93.5q0 -41 22.5 -71t58.5 -47t79.5 -31t87 -30t79.5 -37t58.5 -58t22.5 -87zM442 927l-100 -145h-73l-99 145h47l89 -106l90 106h46z" />
    <glyph glyph-name="scaron" unicode="&#x161;" horiz-adv-x="500" 
d="M63 377q0 72 54 106t130 34q173 0 183 -139h-65q-8 84 -124 84q-47 0 -80 -20t-33 -61q0 -21 10.5 -35t33.5 -23.5t47.5 -16l66 -17.5t75.5 -23q39 -14 62 -45.5t23 -71.5q0 -80 -62 -122t-149 -42q-47 0 -87.5 14t-70.5 50t-31 88h65q3 -52 42 -74.5t97 -22.5
q53 0 92 25.5t39 74.5q0 55 -70 80q-20 6 -89 22q-37 9 -59.5 16.5t-48.5 22.5t-38.5 39t-12.5 57zM386 707l-100 -145h-73l-99 145h47l89 -106l90 106h46z" />
    <glyph glyph-name="Ydieresis" unicode="&#x178;" horiz-adv-x="611" 
d="M274 0v312l-266 410h83l221 -349l221 349h70l-264 -408v-314h-65zM430 839h-74v88h74v-88zM256 839h-74v88h74v-88z" />
    <glyph glyph-name="Zcaron" unicode="&#x17d;" 
d="M517 0h-478v60l401 602h-401v60h478v-60l-402 -602h402v-60zM414 927l-100 -145h-73l-99 145h47l89 -106l90 106h46z" />
    <glyph glyph-name="zcaron" unicode="&#x17e;" horiz-adv-x="444" 
d="M40 0v55l293 392h-293v55h364v-55l-291 -392h291v-55h-364zM358 707l-100 -145h-73l-99 145h47l89 -106l90 106h46z" />
    <glyph glyph-name="florin" unicode="&#x192;" 
d="M233 408h-94l9 60h94l16 80q6 33 12.5 55t20.5 49t39.5 41t61.5 14q29 0 71 -7l-8 -57q-19 4 -44 4q-42 0 -59 -19.5t-24 -59.5l-20 -100h106l-8 -60h-107l-70 -363q-2 -11 -7 -41.5t-8.5 -46.5t-11 -43.5t-17.5 -42.5t-24.5 -31.5t-35.5 -24t-47 -7.5q-24 0 -46 6l11 54
q28 -7 48 -1q8 2 15 7t12.5 14l9 14.5t7.5 19t5.5 18t5 20t3.5 16.5z" />
    <glyph glyph-name="circumflex" unicode="&#x2c6;" horiz-adv-x="278" 
d="M3 562l100 145h73l99 -145h-47l-89 106l-90 -106h-46z" />
    <glyph glyph-name="caron" unicode="&#x2c7;" horiz-adv-x="278" 
d="M275 707l-100 -145h-73l-99 145h47l89 -106l90 106h46z" />
    <glyph glyph-name="breve" unicode="&#x2d8;" horiz-adv-x="278" 
d="M243 707h18q-4 -56 -35.5 -77t-89.5 -21q-118 0 -119 98h19q13 -52 100 -52q91 0 107 52z" />
    <glyph glyph-name="dotaccent" unicode="&#x2d9;" horiz-adv-x="278" 
d="M176 619h-74v88h74v-88z" />
    <glyph glyph-name="ring" unicode="&#x2da;" horiz-adv-x="278" 
d="M51 649q0 36 26.5 62t61.5 26q36 0 62 -26t26 -62q0 -35 -26 -61.5t-62 -26.5q-35 0 -61.5 26.5t-26.5 61.5zM194 649q0 21 -17 38t-38 17t-38 -16.5t-17 -38.5q0 -20 17 -37.5t38 -17.5q20 0 37.5 17.5t17.5 37.5z" />
    <glyph glyph-name="ogonek" unicode="&#x2db;" horiz-adv-x="278" 
d="M246 -126v-43q-20 -8 -58 -15t-64 -7q-41 0 -72.5 23t-31.5 70q0 33 37.5 60t80.5 38h53v-2q-51 -19 -83.5 -42.5t-32.5 -44.5q0 -25 23 -41t46 -16q50 0 102 20z" />
    <glyph glyph-name="tilde" unicode="&#x2dc;" horiz-adv-x="278" 
d="M239 695h38q-9 -37 -32 -61t-59 -24q-16 0 -45 11q-30 10 -54 10q-40 0 -47 -29h-38q9 42 37.5 64.5t70.5 15.5q10 -1 40 -11q34 -9 39 -9q37 0 50 33z" />
    <glyph glyph-name="hungarumlaut" unicode="&#x2dd;" 
d="M125 566l95 141h81l-129 -141h-47zM256 566l95 141h81l-129 -141h-47z" />
    <glyph glyph-name="endash" unicode="&#x2013;" horiz-adv-x="500" 
d="M500 237h-500v60h500v-60z" />
    <glyph glyph-name="emdash" unicode="&#x2014;" horiz-adv-x="1000" 
d="M1000 237h-1000v60h1000v-60z" />
    <glyph glyph-name="quoteleft" unicode="&#x2018;" horiz-adv-x="278" 
d="M154 517h-81l72 205h52z" />
    <glyph glyph-name="quoteright" unicode="&#x2019;" horiz-adv-x="278" 
d="M124 722h81l-72 -205h-52z" />
    <glyph glyph-name="quotesinglbase" unicode="&#x201a;" horiz-adv-x="278" 
d="M124 81h81l-72 -205h-52z" />
    <glyph glyph-name="quotedblleft" unicode="&#x201c;" 
d="M384 517h-81l72 205h52zM200 517h-81l72 205h52z" />
    <glyph glyph-name="quotedblright" unicode="&#x201d;" 
d="M356 722h81l-72 -205h-52zM172 722h81l-72 -205h-52z" />
    <glyph glyph-name="quotedblbase" unicode="&#x201e;" 
d="M354 81h81l-72 -205h-52zM170 81h81l-72 -205h-52z" />
    <glyph glyph-name="dagger" unicode="&#x2020;" 
d="M248 487h-172v55h172v180h60v-180h172v-55h-172v-487h-60v487z" />
    <glyph glyph-name="daggerdbl" unicode="&#x2021;" 
d="M248 487h-172v55h172v180h60v-180h172v-55h-172v-255h172v-55h-172v-177h-60v177h-172v55h172v255z" />
    <glyph glyph-name="bullet" unicode="&#x2022;" horiz-adv-x="500" 
d="M430 361q0 -74 -53 -127t-128 -53q-73 0 -126 53t-53 127q0 75 52.5 127.5t126.5 52.5q75 0 128 -52.5t53 -127.5z" />
    <glyph glyph-name="ellipsis" unicode="&#x2026;" horiz-adv-x="1000" 
d="M127 86h80v-86h-80v86zM460 86h80v-86h-80v86zM793 86h80v-86h-80v86z" />
    <glyph glyph-name="perthousand" unicode="&#x2030;" horiz-adv-x="1000" 
d="M91 -15l418 722h53l-415 -722h-56zM175 662q-44 0 -66.5 -35t-22.5 -82t22.5 -82t66.5 -35t66.5 35t22.5 82t-22.5 82t-66.5 35zM478 264q-44 0 -66.5 -35t-22.5 -82t22.5 -82t66.5 -35t66.5 35t22.5 82t-22.5 82t-66.5 35zM478 -15q-70 0 -107 44.5t-37 117.5t37 117.5
t107 44.5t107 -44.5t37 -117.5t-37 -117.5t-107 -44.5zM175 383q-70 0 -107 44.5t-37 117.5t37 117.5t107 44.5t107 -44.5t37 -117.5t-37 -117.5t-107 -44.5zM825 -15q-70 0 -107 44.5t-37 117.5t37 117.5t107 44.5t107 -44.5t37 -117.5t-37 -117.5t-107 -44.5zM825 264
q-44 0 -66.5 -35t-22.5 -82t22.5 -82t66.5 -35t66.5 35t22.5 82t-22.5 82t-66.5 35z" />
    <glyph glyph-name="guilsinglleft" unicode="&#x2039;" horiz-adv-x="278" 
d="M164 462h51l-93 -195l92 -195h-50l-106 195z" />
    <glyph glyph-name="guilsinglright" unicode="&#x203a;" horiz-adv-x="278" 
d="M114 72h-51l93 195l-92 195h50l106 -195z" />
    <glyph glyph-name="fraction" unicode="&#x2044;" horiz-adv-x="167" 
d="M319 707l-415 -707h-55l417 707h53z" />
    <glyph glyph-name="fraction" unicode="&#x2215;" horiz-adv-x="167" 
d="M319 707l-415 -707h-55l417 707h53z" />
    <glyph glyph-name="Euro" unicode="&#x20ac;" 
d="M44 331h44v15q0 23 1 35h-60l17 56h49q15 118 80 194t176 76q114 0 176 -84l-27 -88q-17 55 -58 83.5t-92 28.5q-82 0 -126.5 -59.5t-58.5 -150.5h306l-17 -56h-295q-1 -12 -1 -35v-15h280l-17 -56h-259q7 -64 26 -112.5t61 -83t101 -34.5q84 0 152 85v-83
q-62 -62 -151 -62q-116 0 -180.5 81t-78.5 209h-65z" />
    <glyph glyph-name="trademark" unicode="&#x2122;" horiz-adv-x="940" 
d="M349 722v-40h-132v-381h-55v381h-133v40h320zM523 722l120 -311h2l118 311h99v-421h-55v377h-2l-145 -377h-34l-145 377h-2v-377h-55v421h99z" />
    <glyph glyph-name="minus" unicode="&#x2212;" horiz-adv-x="660" 
d="M80 221v60h500v-60h-500z" />
    <glyph glyph-name="fi" unicode="&#xfb01;" 
d="M406 502h60v-502h-60v502zM471 722v-75h-70v75h70zM183 0h-60v447h-101v55h101v107q0 65 28.5 95t92.5 30q8 0 57 -11v-48q-24 4 -37 4q-56 0 -70 -25t-11 -88v-64h114v-55h-114v-447z" />
    <glyph glyph-name="fl" unicode="&#xfb02;" 
d="M185 0h-60v447h-101v55h101v107q0 65 28.5 95t92.5 30q8 0 57 -11v-48q-24 4 -37 4q-56 0 -70 -25t-11 -88v-64h114v-55h-114v-447zM470 722v-722h-60v722h60z" />
    <hkern u1="&#x20;" u2="&#x201e;" k="50" />
    <hkern u1="&#x20;" u2="&#x201c;" k="50" />
    <hkern u1="&#x20;" u2="Y" k="120" />
    <hkern u1="&#x20;" u2="W" k="75" />
    <hkern u1="&#x20;" u2="V" k="75" />
    <hkern u1="&#x20;" u2="T" k="120" />
    <hkern u1="&#x20;" u2="A" k="25" />
    <hkern u1="&#x2c;" u2="&#x201d;" k="250" />
    <hkern u1="&#x2c;" u2="&#x201c;" k="250" />
    <hkern u1="&#x2c;" u2="&#x2019;" k="175" />
    <hkern u1="&#x2c;" u2="&#x2018;" k="175" />
    <hkern u1="&#x2e;" u2="&#x201d;" k="225" />
    <hkern u1="&#x2e;" u2="&#x201c;" k="225" />
    <hkern u1="&#x2e;" u2="&#x2019;" k="175" />
    <hkern u1="&#x2e;" u2="&#x2018;" k="175" />
    <hkern u1="&#x30;" u2="&#x31;" k="75" />
    <hkern u1="&#x30;" u2="&#x30;" k="-20" />
    <hkern u1="&#x31;" u2="&#x39;" k="50" />
    <hkern u1="&#x31;" u2="&#x38;" k="35" />
    <hkern u1="&#x31;" u2="&#x37;" k="70" />
    <hkern u1="&#x31;" u2="&#x36;" k="50" />
    <hkern u1="&#x31;" u2="&#x35;" k="50" />
    <hkern u1="&#x31;" u2="&#x34;" k="50" />
    <hkern u1="&#x31;" u2="&#x33;" k="50" />
    <hkern u1="&#x31;" u2="&#x32;" k="50" />
    <hkern u1="&#x31;" u2="&#x31;" k="115" />
    <hkern u1="&#x31;" u2="&#x30;" k="75" />
    <hkern u1="&#x31;" u2="&#x2e;" k="140" />
    <hkern u1="&#x31;" u2="&#x2d;" k="75" />
    <hkern u1="&#x37;" u2="&#x36;" k="75" />
    <hkern u1="&#x37;" u2="&#x34;" k="135" />
    <hkern u1="&#x37;" u2="&#x2e;" k="210" />
    <hkern u1="&#x37;" u2="&#x2d;" k="40" />
    <hkern u1="&#x37;" u2="&#x2c;" k="210" />
    <hkern u1="A" u2="&#x201d;" k="175" />
    <hkern u1="A" u2="&#x201c;" k="175" />
    <hkern u1="A" u2="&#x2019;" k="175" />
    <hkern u1="A" u2="&#x2018;" k="175" />
    <hkern u1="A" u2="&#xbb;" k="50" />
    <hkern u1="A" u2="&#xab;" k="50" />
    <hkern u1="A" u2="y" k="60" />
    <hkern u1="A" u2="w" k="55" />
    <hkern u1="A" u2="v" k="55" />
    <hkern u1="A" u2="u" k="25" />
    <hkern u1="A" u2="s" k="15" />
    <hkern u1="A" u2="q" k="20" />
    <hkern u1="A" u2="o" k="20" />
    <hkern u1="A" u2="g" k="20" />
    <hkern u1="A" u2="e" k="40" />
    <hkern u1="A" u2="d" k="20" />
    <hkern u1="A" u2="c" k="20" />
    <hkern u1="A" u2="Y" k="100" />
    <hkern u1="A" u2="W" k="40" />
    <hkern u1="A" u2="V" k="55" />
    <hkern u1="A" u2="U" k="40" />
    <hkern u1="A" u2="T" k="75" />
    <hkern u1="A" u2="S" k="25" />
    <hkern u1="A" u2="Q" k="20" />
    <hkern u1="A" u2="O" k="20" />
    <hkern u1="A" u2="G" k="55" />
    <hkern u1="A" u2="C" k="55" />
    <hkern u1="B" u2="o" k="20" />
    <hkern u1="B" u2="e" k="20" />
    <hkern u1="B" u2="a" k="20" />
    <hkern u1="B" u2="Y" k="75" />
    <hkern u1="B" u2="W" k="40" />
    <hkern u1="B" u2="V" k="55" />
    <hkern u1="B" u2="A" k="25" />
    <hkern u1="B" u2="&#x2e;" k="25" />
    <hkern u1="B" u2="&#x2c;" k="25" />
    <hkern u1="C" u2="y" k="25" />
    <hkern u1="D" u2="Y" k="55" />
    <hkern u1="D" u2="W" k="20" />
    <hkern u1="D" u2="V" k="40" />
    <hkern u1="D" u2="O" k="20" />
    <hkern u1="D" u2="J" k="55" />
    <hkern u1="D" u2="A" k="55" />
    <hkern u1="D" u2="&#x2e;" k="50" />
    <hkern u1="D" u2="&#x2c;" k="50" />
    <hkern u1="E" u2="T" k="25" />
    <hkern u1="F" u2="&#xfc;" k="55" />
    <hkern u1="F" u2="&#xf6;" k="40" />
    <hkern u1="F" u2="&#xe4;" k="20" />
    <hkern u1="F" u2="u" k="55" />
    <hkern u1="F" u2="r" k="55" />
    <hkern u1="F" u2="o" k="40" />
    <hkern u1="F" u2="e" k="40" />
    <hkern u1="F" u2="a" k="20" />
    <hkern u1="F" u2="J" k="175" />
    <hkern u1="F" u2="A" k="95" />
    <hkern u1="F" u2="&#x2e;" k="215" />
    <hkern u1="F" u2="&#x2d;" k="125" />
    <hkern u1="F" u2="&#x2c;" k="215" />
    <hkern u1="G" u2="A" k="20" />
    <hkern u1="H" u2="T" k="45" />
    <hkern u1="H" u2="O" k="20" />
    <hkern u1="I" u2="T" k="20" />
    <hkern u1="J" u2="u" k="20" />
    <hkern u1="J" u2="o" k="20" />
    <hkern u1="J" u2="e" k="20" />
    <hkern u1="J" u2="a" k="20" />
    <hkern u1="J" u2="O" k="20" />
    <hkern u1="J" u2="A" k="40" />
    <hkern u1="J" u2="&#x2e;" k="25" />
    <hkern u1="J" u2="&#x2c;" k="25" />
    <hkern u1="K" u2="y" k="40" />
    <hkern u1="K" u2="w" k="55" />
    <hkern u1="K" u2="u" k="20" />
    <hkern u1="K" u2="o" k="20" />
    <hkern u1="K" u2="e" k="20" />
    <hkern u1="K" u2="O" k="40" />
    <hkern u1="L" u2="&#x201d;" k="300" />
    <hkern u1="L" u2="&#x201c;" k="325" />
    <hkern u1="L" u2="&#x2019;" k="235" />
    <hkern u1="L" u2="&#x2018;" k="235" />
    <hkern u1="L" u2="y" k="75" />
    <hkern u1="L" u2="o" k="20" />
    <hkern u1="L" u2="e" k="20" />
    <hkern u1="L" u2="Y" k="140" />
    <hkern u1="L" u2="W" k="115" />
    <hkern u1="L" u2="V" k="115" />
    <hkern u1="L" u2="T" k="95" />
    <hkern u1="L" u2="S" k="40" />
    <hkern u1="L" u2="&#x2d;" k="200" />
    <hkern u1="O" u2="&#x201d;" k="50" />
    <hkern u1="O" u2="&#x2019;" k="25" />
    <hkern u1="O" u2="w" k="15" />
    <hkern u1="O" u2="v" k="15" />
    <hkern u1="O" u2="e" k="20" />
    <hkern u1="O" u2="Y" k="75" />
    <hkern u1="O" u2="X" k="40" />
    <hkern u1="O" u2="W" k="55" />
    <hkern u1="O" u2="V" k="55" />
    <hkern u1="O" u2="U" k="20" />
    <hkern u1="O" u2="T" k="55" />
    <hkern u1="O" u2="O" k="20" />
    <hkern u1="O" u2="G" k="20" />
    <hkern u1="O" u2="A" k="55" />
    <hkern u1="O" u2="&#x2e;" k="25" />
    <hkern u1="O" u2="&#x2c;" k="25" />
    <hkern u1="P" u2="u" k="20" />
    <hkern u1="P" u2="r" k="20" />
    <hkern u1="P" u2="o" k="55" />
    <hkern u1="P" u2="e" k="55" />
    <hkern u1="P" u2="a" k="30" />
    <hkern u1="P" u2="A" k="75" />
    <hkern u1="P" u2="&#x2e;" k="250" />
    <hkern u1="P" u2="&#x2d;" k="40" />
    <hkern u1="P" u2="&#x2c;" k="250" />
    <hkern u1="R" u2="&#x2019;" k="20" />
    <hkern u1="R" u2="u" k="20" />
    <hkern u1="R" u2="o" k="20" />
    <hkern u1="R" u2="e" k="20" />
    <hkern u1="R" u2="a" k="10" />
    <hkern u1="R" u2="Y" k="40" />
    <hkern u1="R" u2="W" k="20" />
    <hkern u1="R" u2="V" k="20" />
    <hkern u1="R" u2="U" k="20" />
    <hkern u1="R" u2="T" k="20" />
    <hkern u1="R" u2="S" k="20" />
    <hkern u1="R" u2="O" k="20" />
    <hkern u1="R" u2="G" k="20" />
    <hkern u1="R" u2="C" k="20" />
    <hkern u1="S" u2="y" k="25" />
    <hkern u1="S" u2="w" k="25" />
    <hkern u1="S" u2="v" k="25" />
    <hkern u1="S" u2="Y" k="50" />
    <hkern u1="S" u2="V" k="25" />
    <hkern u1="S" u2="T" k="20" />
    <hkern u1="S" u2="A" k="25" />
    <hkern u1="S" u2="&#x2e;" k="25" />
    <hkern u1="S" u2="&#x2c;" k="25" />
    <hkern u1="T" u2="&#x203a;" k="150" />
    <hkern u1="T" u2="&#x2039;" k="175" />
    <hkern u1="T" u2="&#xfc;" k="115" />
    <hkern u1="T" u2="&#xf8;" k="115" />
    <hkern u1="T" u2="&#xf6;" k="100" />
    <hkern u1="T" u2="&#xe9;" k="115" />
    <hkern u1="T" u2="&#xe5;" k="95" />
    <hkern u1="T" u2="&#xe4;" k="95" />
    <hkern u1="T" u2="&#xbb;" k="200" />
    <hkern u1="T" u2="&#xab;" k="200" />
    <hkern u1="T" u2="y" k="115" />
    <hkern u1="T" u2="w" k="115" />
    <hkern u1="T" u2="u" k="115" />
    <hkern u1="T" u2="r" k="115" />
    <hkern u1="T" u2="o" k="115" />
    <hkern u1="T" u2="h" k="20" />
    <hkern u1="T" u2="e" k="115" />
    <hkern u1="T" u2="a" k="95" />
    <hkern u1="T" u2="O" k="55" />
    <hkern u1="T" u2="J" k="125" />
    <hkern u1="T" u2="A" k="75" />
    <hkern u1="T" u2="&#x3b;" k="145" />
    <hkern u1="T" u2="&#x3a;" k="145" />
    <hkern u1="T" u2="&#x2e;" k="170" />
    <hkern u1="T" u2="&#x2d;" k="150" />
    <hkern u1="T" u2="&#x2c;" k="170" />
    <hkern u1="U" u2="T" k="45" />
    <hkern u1="U" u2="A" k="25" />
    <hkern u1="U" u2="&#x2e;" k="25" />
    <hkern u1="U" u2="&#x2c;" k="25" />
    <hkern u1="V" u2="&#x203a;" k="25" />
    <hkern u1="V" u2="&#x2039;" k="50" />
    <hkern u1="V" u2="&#xfc;" k="35" />
    <hkern u1="V" u2="&#xf6;" k="75" />
    <hkern u1="V" u2="&#xe4;" k="55" />
    <hkern u1="V" u2="&#xbb;" k="75" />
    <hkern u1="V" u2="&#xab;" k="100" />
    <hkern u1="V" u2="u" k="35" />
    <hkern u1="V" u2="o" k="75" />
    <hkern u1="V" u2="i" k="20" />
    <hkern u1="V" u2="e" k="75" />
    <hkern u1="V" u2="a" k="55" />
    <hkern u1="V" u2="Y" k="-20" />
    <hkern u1="V" u2="O" k="55" />
    <hkern u1="V" u2="G" k="55" />
    <hkern u1="V" u2="C" k="55" />
    <hkern u1="V" u2="A" k="55" />
    <hkern u1="V" u2="&#x3b;" k="55" />
    <hkern u1="V" u2="&#x3a;" k="55" />
    <hkern u1="V" u2="&#x2e;" k="135" />
    <hkern u1="V" u2="&#x2d;" k="55" />
    <hkern u1="V" u2="&#x2c;" k="135" />
    <hkern u1="W" u2="&#x203a;" k="25" />
    <hkern u1="W" u2="&#x2039;" k="50" />
    <hkern u1="W" u2="&#xfc;" k="40" />
    <hkern u1="W" u2="&#xf6;" k="40" />
    <hkern u1="W" u2="&#xe4;" k="40" />
    <hkern u1="W" u2="&#xbb;" k="50" />
    <hkern u1="W" u2="&#xab;" k="75" />
    <hkern u1="W" u2="y" k="40" />
    <hkern u1="W" u2="u" k="40" />
    <hkern u1="W" u2="r" k="40" />
    <hkern u1="W" u2="o" k="40" />
    <hkern u1="W" u2="i" k="-20" />
    <hkern u1="W" u2="e" k="40" />
    <hkern u1="W" u2="a" k="40" />
    <hkern u1="W" u2="Y" k="-20" />
    <hkern u1="W" u2="O" k="55" />
    <hkern u1="W" u2="A" k="40" />
    <hkern u1="W" u2="&#x3b;" k="35" />
    <hkern u1="W" u2="&#x3a;" k="35" />
    <hkern u1="W" u2="&#x2e;" k="75" />
    <hkern u1="W" u2="&#x2d;" k="20" />
    <hkern u1="W" u2="&#x2c;" k="75" />
    <hkern u1="X" u2="O" k="40" />
    <hkern u1="X" u2="C" k="20" />
    <hkern u1="Y" u2="&#x203a;" k="100" />
    <hkern u1="Y" u2="&#x2039;" k="125" />
    <hkern u1="Y" u2="&#xbb;" k="100" />
    <hkern u1="Y" u2="&#xab;" k="175" />
    <hkern u1="Y" u2="u" k="100" />
    <hkern u1="Y" u2="o" k="135" />
    <hkern u1="Y" u2="i" k="35" />
    <hkern u1="Y" u2="e" k="135" />
    <hkern u1="Y" u2="a" k="115" />
    <hkern u1="Y" u2="S" k="50" />
    <hkern u1="Y" u2="O" k="75" />
    <hkern u1="Y" u2="C" k="50" />
    <hkern u1="Y" u2="A" k="100" />
    <hkern u1="Y" u2="&#x3b;" k="100" />
    <hkern u1="Y" u2="&#x3a;" k="100" />
    <hkern u1="Y" u2="&#x2e;" k="170" />
    <hkern u1="Y" u2="&#x2d;" k="175" />
    <hkern u1="Y" u2="&#x2c;" k="170" />
    <hkern u1="a" u2="y" k="20" />
    <hkern u1="a" u2="w" k="20" />
    <hkern u1="a" u2="v" k="20" />
    <hkern u1="b" u2="y" k="20" />
    <hkern u1="b" u2="v" k="20" />
    <hkern u1="c" u2="k" k="50" />
    <hkern u1="c" u2="h" k="50" />
    <hkern u1="e" u2="&#x201d;" k="75" />
    <hkern u1="e" u2="&#x201c;" k="75" />
    <hkern u1="e" u2="&#x2019;" k="25" />
    <hkern u1="e" u2="y" k="20" />
    <hkern u1="e" u2="x" k="20" />
    <hkern u1="e" u2="w" k="20" />
    <hkern u1="e" u2="v" k="20" />
    <hkern u1="f" u2="&#x201d;" k="50" />
    <hkern u1="f" u2="&#x2019;" k="25" />
    <hkern u1="f" u2="t" k="50" />
    <hkern u1="f" u2="o" k="20" />
    <hkern u1="f" u2="f" k="45" />
    <hkern u1="f" u2="e" k="40" />
    <hkern u1="f" u2="a" k="20" />
    <hkern u1="f" u2="&#x2e;" k="55" />
    <hkern u1="f" u2="&#x2c;" k="55" />
    <hkern u1="g" u2="&#x2e;" k="-20" />
    <hkern u1="g" u2="&#x2c;" k="-20" />
    <hkern u1="h" u2="&#x2019;" k="75" />
    <hkern u1="h" u2="y" k="20" />
    <hkern u1="k" u2="y" k="-20" />
    <hkern u1="k" u2="o" k="20" />
    <hkern u1="k" u2="g" k="20" />
    <hkern u1="k" u2="e" k="20" />
    <hkern u1="m" u2="y" k="20" />
    <hkern u1="n" u2="&#x201d;" k="75" />
    <hkern u1="n" u2="&#x2019;" k="55" />
    <hkern u1="n" u2="y" k="20" />
    <hkern u1="n" u2="w" k="20" />
    <hkern u1="n" u2="v" k="20" />
    <hkern u1="o" u2="&#x201d;" k="75" />
    <hkern u1="o" u2="&#x201c;" k="75" />
    <hkern u1="o" u2="&#x2019;" k="25" />
    <hkern u1="o" u2="y" k="20" />
    <hkern u1="o" u2="x" k="20" />
    <hkern u1="o" u2="w" k="20" />
    <hkern u1="o" u2="v" k="20" />
    <hkern u1="p" u2="y" k="20" />
    <hkern u1="r" u2="&#x2019;" k="-25" />
    <hkern u1="r" u2="z" k="-20" />
    <hkern u1="r" u2="y" k="-40" />
    <hkern u1="r" u2="x" k="-20" />
    <hkern u1="r" u2="w" k="-55" />
    <hkern u1="r" u2="v" k="-40" />
    <hkern u1="r" u2="u" k="25" />
    <hkern u1="r" u2="r" k="10" />
    <hkern u1="r" u2="&#x2e;" k="75" />
    <hkern u1="r" u2="&#x2d;" k="100" />
    <hkern u1="r" u2="&#x2c;" k="75" />
    <hkern u1="s" u2="&#x2019;" k="40" />
    <hkern u1="t" u2="y" k="-20" />
    <hkern u1="t" u2="w" k="-20" />
    <hkern u1="t" u2="u" k="25" />
    <hkern u1="t" u2="t" k="50" />
    <hkern u1="t" u2="a" k="-20" />
    <hkern u1="u" u2="y" k="20" />
    <hkern u1="u" u2="w" k="20" />
    <hkern u1="u" u2="v" k="20" />
    <hkern u1="v" u2="y" k="-20" />
    <hkern u1="v" u2="v" k="-20" />
    <hkern u1="v" u2="o" k="20" />
    <hkern u1="v" u2="e" k="20" />
    <hkern u1="v" u2="c" k="20" />
    <hkern u1="v" u2="a" k="20" />
    <hkern u1="v" u2="&#x2e;" k="75" />
    <hkern u1="v" u2="&#x2d;" k="10" />
    <hkern u1="v" u2="&#x2c;" k="75" />
    <hkern u1="w" u2="y" k="-20" />
    <hkern u1="w" u2="o" k="20" />
    <hkern u1="w" u2="e" k="20" />
    <hkern u1="w" u2="d" k="20" />
    <hkern u1="w" u2="c" k="20" />
    <hkern u1="w" u2="a" k="20" />
    <hkern u1="w" u2="&#x2e;" k="75" />
    <hkern u1="w" u2="&#x2d;" k="40" />
    <hkern u1="w" u2="&#x2c;" k="75" />
    <hkern u1="x" u2="o" k="20" />
    <hkern u1="x" u2="e" k="20" />
    <hkern u1="x" u2="c" k="20" />
    <hkern u1="x" u2="&#x2d;" k="80" />
    <hkern u1="y" u2="s" k="20" />
    <hkern u1="y" u2="o" k="20" />
    <hkern u1="y" u2="g" k="20" />
    <hkern u1="y" u2="e" k="20" />
    <hkern u1="y" u2="d" k="20" />
    <hkern u1="y" u2="c" k="20" />
    <hkern u1="y" u2="a" k="20" />
    <hkern u1="y" u2="&#x2e;" k="75" />
    <hkern u1="y" u2="&#x2d;" k="20" />
    <hkern u1="y" u2="&#x2c;" k="75" />
    <hkern u1="z" u2="o" k="20" />
    <hkern u1="z" u2="e" k="20" />
    <hkern u1="&#xab;" u2="Y" k="100" />
    <hkern u1="&#xab;" u2="W" k="50" />
    <hkern u1="&#xab;" u2="V" k="75" />
    <hkern u1="&#xab;" u2="T" k="200" />
    <hkern u1="&#xab;" u2="A" k="50" />
    <hkern u1="&#xab;" u2="&#x2e;" k="50" />
    <hkern u1="&#xab;" u2="&#x2c;" k="50" />
    <hkern u1="&#xbb;" u2="Y" k="175" />
    <hkern u1="&#xbb;" u2="W" k="75" />
    <hkern u1="&#xbb;" u2="V" k="100" />
    <hkern u1="&#xbb;" u2="T" k="200" />
    <hkern u1="&#xbb;" u2="A" k="50" />
    <hkern u1="&#xbb;" u2="&#x2e;" k="75" />
    <hkern u1="&#xbb;" u2="&#x2c;" k="75" />
    <hkern u1="&#x2018;" u2="&#x2018;" k="95" />
    <hkern u1="&#x2018;" u2="o" k="75" />
    <hkern u1="&#x2018;" u2="e" k="75" />
    <hkern u1="&#x2018;" u2="A" k="175" />
    <hkern u1="&#x2018;" u2="&#x2e;" k="175" />
    <hkern u1="&#x2018;" u2="&#x2c;" k="175" />
    <hkern u1="&#x2019;" u2="&#x2019;" k="95" />
    <hkern u1="&#x2019;" u2="v" k="25" />
    <hkern u1="&#x2019;" u2="t" k="20" />
    <hkern u1="&#x2019;" u2="s" k="95" />
    <hkern u1="&#x2019;" u2="r" k="30" />
    <hkern u1="&#x2019;" u2="d" k="115" />
    <hkern u1="&#x2019;" u2="A" k="190" />
    <hkern u1="&#x2019;" u2="&#x2e;" k="100" />
    <hkern u1="&#x2019;" u2="&#x2c;" k="100" />
    <hkern u1="&#x201c;" u2="o" k="125" />
    <hkern u1="&#x201c;" u2="e" k="125" />
    <hkern u1="&#x201c;" u2="O" k="75" />
    <hkern u1="&#x201c;" u2="A" k="190" />
    <hkern u1="&#x201c;" u2="&#x2e;" k="400" />
    <hkern u1="&#x201c;" u2="&#x2c;" k="400" />
    <hkern u1="&#x201d;" u2="o" k="140" />
    <hkern u1="&#x201d;" u2="A" k="190" />
    <hkern u1="&#x201d;" u2="&#x2e;" k="400" />
    <hkern u1="&#x201d;" u2="&#x2c;" k="400" />
    <hkern u1="&#x201e;" u2="Y" k="225" />
    <hkern u1="&#x201e;" u2="W" k="125" />
    <hkern u1="&#x201e;" u2="V" k="175" />
    <hkern u1="&#x201e;" u2="T" k="200" />
    <hkern u1="&#x2039;" u2="Y" k="100" />
    <hkern u1="&#x2039;" u2="W" k="25" />
    <hkern u1="&#x2039;" u2="V" k="25" />
    <hkern u1="&#x2039;" u2="T" k="175" />
    <hkern u1="&#x2039;" u2="&#x2e;" k="25" />
    <hkern u1="&#x2039;" u2="&#x2c;" k="25" />
    <hkern u1="&#x203a;" u2="Y" k="125" />
    <hkern u1="&#x203a;" u2="W" k="50" />
    <hkern u1="&#x203a;" u2="V" k="50" />
    <hkern u1="&#x203a;" u2="T" k="175" />
    <hkern u1="&#x203a;" u2="&#x2e;" k="50" />
    <hkern u1="&#x203a;" u2="&#x2c;" k="50" />
  </font>
</defs></svg>
